<?xml version="1.0" standalone="no"?>
<!DOCTYPE svg PUBLIC "-//W3C//DTD SVG 1.1//EN" "http://www.w3.org/Graphics/SVG/1.1/DTD/svg11.dtd">
<svg xmlns="http://www.w3.org/2000/svg">
<metadata>Copyright (C) 2017 by original authors @ fontello.com</metadata>
<defs>
<font id="fontello" horiz-adv-x="1000" >
<font-face font-family="fontello" font-weight="400" font-stretch="normal" units-per-em="1000" ascent="850" descent="-150" />
<missing-glyph horiz-adv-x="1000" />
<glyph glyph-name="profile-view" unicode="&#xe800;" d="M500 538c-204 0-386-99-500-250 114-152 296-250 500-250 205 0 386 98 500 250-114 151-295 250-500 250z m-62-125c34 0 62-28 62-63s-28-62-62-62-63 28-63 62 28 63 63 63z m318-252c-39-19-80-35-122-45-44-11-89-16-134-16-45 0-90 5-134 16-42 10-83 26-121 45-62 32-118 75-164 127 46 51 102 94 164 126 31 16 64 29 98 39-19-30-30-65-30-103 0-104 83-187 187-187 104 0 188 83 188 187 0 38-12 73-31 103 34-10 67-23 99-39 61-32 117-75 163-126-46-52-102-95-163-127z m85 451c-106 54-221 82-341 82-120 0-235-28-341-82-57-29-111-66-159-109v-107c54 57 118 105 188 141 97 50 202 75 312 75s215-25 312-75c70-36 134-84 188-141v107c-48 43-102 80-159 109z" horiz-adv-x="1000" />

<glyph glyph-name="search" unicode="&#xe801;" d="M643 386q0 103-73 176t-177 74-177-74-73-176 73-177 177-73 177 73 73 177z m286-465q0-29-22-50t-50-21q-30 0-50 21l-191 191q-100-69-223-69-80 0-153 31t-125 84-84 125-31 153 31 152 84 126 125 84 153 31 153-31 125-84 84-126 31-152q0-123-69-223l191-191q21-21 21-51z" horiz-adv-x="928.6" />

<glyph glyph-name="ok-circled" unicode="&#xe802;" d="M717 440q0 16-10 26l-51 50q-11 11-25 11t-25-11l-228-227-126 126q-11 11-25 11t-25-11l-51-50q-10-10-10-26 0-15 10-25l202-202q10-10 25-10 15 0 26 10l303 303q10 10 10 25z m140-90q0-117-57-215t-156-156-215-58-216 58-155 156-58 215 58 215 155 156 216 58 215-58 156-156 57-215z" horiz-adv-x="857.1" />

<glyph glyph-name="cancel" unicode="&#xe803;" d="M724 112q0-22-15-38l-76-76q-16-15-38-15t-38 15l-164 165-164-165q-16-15-38-15t-38 15l-76 76q-16 16-16 38t16 38l164 164-164 164q-16 16-16 38t16 38l76 76q16 16 38 16t38-16l164-164 164 164q16 16 38 16t38-16l76-76q15-15 15-38t-15-38l-164-164 164-164q15-15 15-38z" horiz-adv-x="785.7" />

<glyph glyph-name="plus" unicode="&#xe804;" d="M786 439v-107q0-22-16-38t-38-15h-232v-233q0-22-16-37t-38-16h-107q-22 0-38 16t-15 37v233h-232q-23 0-38 15t-16 38v107q0 23 16 38t38 16h232v232q0 22 15 38t38 16h107q23 0 38-16t16-38v-232h232q23 0 38-16t16-38z" horiz-adv-x="785.7" />

<glyph glyph-name="minus" unicode="&#xe805;" d="M786 439v-107q0-22-16-38t-38-15h-678q-23 0-38 15t-16 38v107q0 23 16 38t38 16h678q23 0 38-16t16-38z" horiz-adv-x="785.7" />

<glyph glyph-name="help-circled" unicode="&#xe806;" d="M500 82v107q0 8-5 13t-13 5h-107q-8 0-13-5t-5-13v-107q0-8 5-13t13-5h107q8 0 13 5t5 13z m143 375q0 49-31 91t-77 65-95 23q-136 0-207-119-9-13 4-24l74-55q4-4 10-4 9 0 14 7 30 38 48 51 19 14 48 14 27 0 48-15t21-33q0-21-11-34t-38-25q-35-15-65-48t-29-70v-20q0-8 5-13t13-5h107q8 0 13 5t5 13q0 10 12 27t30 28q18 10 28 16t25 19 25 27 16 34 7 45z m214-107q0-117-57-215t-156-156-215-58-216 58-155 156-58 215 58 215 155 156 216 58 215-58 156-156 57-215z" horiz-adv-x="857.1" />

<glyph glyph-name="link-ext" unicode="&#xe807;" d="M786 332v-178q0-67-47-114t-114-47h-464q-67 0-114 47t-47 114v464q0 66 47 113t114 48h393q7 0 12-5t5-13v-36q0-8-5-13t-12-5h-393q-37 0-63-26t-27-63v-464q0-37 27-63t63-27h464q37 0 63 27t26 63v178q0 8 5 13t13 5h36q8 0 13-5t5-13z m214 482v-285q0-15-11-25t-25-11-25 11l-98 98-364-364q-5-6-13-6t-12 6l-64 64q-6 5-6 12t6 13l364 364-98 98q-11 11-11 25t11 25 25 11h285q15 0 25-11t11-25z" horiz-adv-x="1000" />

<glyph glyph-name="tags" unicode="&#xe808;" d="M250 600q0 30-21 51t-50 20-51-20-21-51 21-50 51-21 50 21 21 50z m595-321q0-30-20-51l-274-274q-22-21-51-21-30 0-50 21l-399 399q-21 21-36 57t-15 65v232q0 29 21 50t50 22h233q29 0 65-15t57-36l399-399q20-21 20-50z m215 0q0-30-21-51l-274-274q-22-21-51-21-20 0-33 8t-29 25l262 262q21 21 21 51 0 29-21 50l-399 399q-21 21-57 36t-65 15h125q29 0 65-15t57-36l399-399q21-21 21-50z" horiz-adv-x="1071.4" />

<glyph glyph-name="forward" unicode="&#xe809;" d="M1000 493q0-15-11-25l-285-286q-11-11-25-11t-25 11-11 25v143h-125q-55 0-98-3t-86-12-74-24-59-39-45-56-27-77-10-101q0-31 3-69 0-4 2-13t1-15q0-8-5-14t-13-6q-9 0-15 10-4 5-8 12t-7 17-6 13q-71 159-71 252 0 111 30 186 90 225 488 225h125v143q0 14 11 25t25 10 25-10l285-286q11-11 11-25z" horiz-adv-x="1000" />

<glyph glyph-name="attention" unicode="&#xe80a;" d="M571 83v106q0 8-5 13t-12 5h-108q-7 0-12-5t-5-13v-106q0-8 5-13t12-6h108q7 0 12 6t5 13z m-1 208l10 257q0 6-5 10-7 6-14 6h-122q-6 0-14-6-5-4-5-12l9-255q0-5 6-9t13-3h103q8 0 14 3t5 9z m-7 522l428-786q20-35-1-70-9-17-26-26t-35-10h-858q-18 0-35 10t-26 26q-21 35-1 70l429 786q9 17 26 27t36 10 36-10 27-27z" horiz-adv-x="1000" />

<glyph glyph-name="doc-text-inv" unicode="&#xe80b;" d="M819 584q8-7 16-20h-264v264q13-8 21-16z m-265-91h303v-589q0-23-15-38t-38-16h-750q-23 0-38 16t-16 38v892q0 23 16 38t38 16h446v-304q0-22 16-37t38-16z m89-411v36q0 8-5 13t-13 5h-393q-8 0-13-5t-5-13v-36q0-8 5-13t13-5h393q8 0 13 5t5 13z m0 143v36q0 8-5 13t-13 5h-393q-8 0-13-5t-5-13v-36q0-8 5-13t13-5h393q8 0 13 5t5 13z m0 143v36q0 7-5 12t-13 5h-393q-8 0-13-5t-5-12v-36q0-8 5-13t13-5h393q8 0 13 5t5 13z" horiz-adv-x="857.1" />

<glyph glyph-name="phone" unicode="&#xe80c;" d="M786 158q0-15-6-39t-12-38q-11-28-68-60-52-28-103-28-15 0-30 2t-32 7-26 8-31 11-28 10q-54 20-97 47-71 44-148 120t-120 148q-27 43-46 97-2 5-10 28t-12 31-8 26-7 32-2 29q0 52 29 104 31 57 59 68 14 6 38 12t39 6q8 0 12-2 10-3 30-42 6-11 16-31t20-35 17-30q2-2 10-14t12-20 4-16q0-11-16-27t-35-31-34-30-16-25q0-5 3-13t4-11 8-14 7-10q42-77 97-132t131-97q1 0 10-6t14-8 11-5 13-2q10 0 25 16t30 34 31 35 28 16q7 0 15-4t20-12 14-10q14-8 30-17t36-20 30-17q39-19 42-29 2-4 2-12z" horiz-adv-x="785.7" />

<glyph glyph-name="cog" unicode="&#xe80d;" d="M571 350q0 59-41 101t-101 42-101-42-42-101 42-101 101-42 101 42 41 101z m286 61v-124q0-7-4-13t-11-7l-104-16q-10-30-21-51 19-27 59-77 6-6 6-13t-5-13q-15-21-55-61t-53-39q-7 0-14 5l-77 60q-25-13-51-21-9-76-16-104-4-16-20-16h-124q-8 0-14 5t-6 12l-16 103q-27 9-50 21l-79-60q-6-5-14-5-8 0-14 6-70 64-92 94-4 5-4 13 0 6 5 12 8 12 28 37t30 40q-15 28-23 55l-102 15q-7 1-11 7t-5 13v124q0 7 5 13t10 7l104 16q8 25 22 51-23 32-60 77-6 7-6 14 0 5 5 12 15 20 55 60t53 40q7 0 15-5l77-60q24 13 50 21 9 76 17 104 3 16 20 16h124q7 0 13-5t7-12l15-103q28-9 51-20l79 59q5 5 13 5 7 0 14-5 72-67 92-95 4-5 4-12 0-7-4-13-9-12-29-37t-30-40q15-28 23-54l102-16q7-1 12-7t4-13z" horiz-adv-x="857.1" />

<glyph glyph-name="down-open" unicode="&#xe80e;" d="M939 399l-414-413q-10-11-25-11t-25 11l-414 413q-11 11-11 26t11 25l93 92q10 11 25 11t25-11l296-296 296 296q11 11 25 11t26-11l92-92q11-11 11-25t-11-26z" horiz-adv-x="1000" />

<glyph glyph-name="up-open" unicode="&#xe80f;" d="M939 107l-92-92q-11-10-26-10t-25 10l-296 297-296-297q-11-10-25-10t-25 10l-93 92q-11 11-11 26t11 25l414 414q11 10 25 10t25-10l414-414q11-11 11-25t-11-26z" horiz-adv-x="1000" />

<glyph glyph-name="angle-down" unicode="&#xe810;" d="M600 439q0-7-6-12l-260-261q-5-5-13-5t-12 5l-260 261q-6 5-6 12t6 13l28 28q5 6 12 6t13-6l219-219 220 219q5 6 13 6t12-6l28-28q6-5 6-13z" horiz-adv-x="642.9" />

<glyph glyph-name="ccw" unicode="&#xe811;" d="M857 350q0-87-34-166t-91-137-137-92-166-34q-96 0-183 41t-147 114q-4 6-4 13t5 11l76 77q6 5 14 5 9-1 13-7 41-53 100-82t126-29q58 0 110 23t92 61 61 91 22 111-22 111-61 91-92 61-110 23q-55 0-105-20t-90-57l77-77q17-16 8-38-10-23-33-23h-250q-15 0-25 11t-11 25v250q0 24 22 33 22 10 39-8l72-72q60 57 137 88t159 31q87 0 166-34t137-92 91-137 34-166z" horiz-adv-x="857.1" />

<glyph glyph-name="history" unicode="&#xe812;" d="M857 350q0-87-34-166t-91-137-137-92-166-34q-96 0-183 41t-147 114q-4 6-4 13t5 11l76 77q6 5 14 5 9-1 13-7 41-53 100-82t126-29q58 0 110 23t92 61 61 91 22 111-22 111-61 91-92 61-110 23q-55 0-105-20t-90-57l77-77q17-16 8-38-10-23-33-23h-250q-15 0-25 11t-11 25v250q0 24 22 33 22 10 39-8l72-72q60 57 137 88t159 31q87 0 166-34t137-92 91-137 34-166z m-357 161v-250q0-8-5-13t-13-5h-178q-8 0-13 5t-5 13v35q0 8 5 13t13 5h125v197q0 8 5 13t12 5h36q8 0 13-5t5-13z" horiz-adv-x="857.1" />

<glyph glyph-name="to-end" unicode="&#xe813;" d="M25-71q-10-11-18-8t-7 18v822q0 14 7 18t18-8l396-396q5-5 8-10v378q0 14 10 25t25 11h72q14 0 25-11t10-25v-786q0-14-10-25t-25-11h-72q-14 0-25 11t-10 25v379q-3-6-8-11z" horiz-adv-x="571.4" />

<glyph glyph-name="to-start" unicode="&#xe814;" d="M546 771q11 11 18 8t7-18v-822q0-14-7-18t-18 8l-396 396q-5 5-7 11v-379q0-14-11-25t-25-11h-71q-15 0-25 11t-11 25v786q0 14 11 25t25 11h71q15 0 25-11t11-25v-378q2 5 7 10z" horiz-adv-x="571.4" />

<glyph glyph-name="fast-fw" unicode="&#xe815;" d="M25-71q-10-11-18-8t-7 18v822q0 14 7 18t18-8l396-396q5-5 8-10v396q0 14 7 18t18-8l396-396q11-10 11-25t-11-25l-396-396q-11-11-18-8t-7 18v397q-3-6-8-11z" horiz-adv-x="928.6" />

<glyph glyph-name="fast-bw" unicode="&#xe816;" d="M904 771q10 11 17 8t8-18v-822q0-14-8-18t-17 8l-397 396q-5 5-7 11v-397q0-14-7-18t-18 8l-396 396q-11 11-11 25t11 25l396 396q11 11 18 8t7-18v-396q2 5 7 10z" horiz-adv-x="928.6" />

<glyph glyph-name="shortlist1" unicode="&#xe817;" d="M214 64q0-44-31-76t-76-31-76 31-31 76 31 76 76 31 76-31 31-76z m0 286q0-45-31-76t-76-31-76 31-31 76 31 76 76 31 76-31 31-76z m786-232v-107q0-7-5-13t-13-5h-678q-8 0-13 5t-5 13v107q0 7 5 12t13 6h678q7 0 13-6t5-12z m-786 518q0-45-31-76t-76-31-76 31-31 76 31 76 76 31 76-31 31-76z m786-232v-108q0-7-5-12t-13-5h-678q-8 0-13 5t-5 12v108q0 7 5 12t13 5h678q7 0 13-5t5-12z m0 285v-107q0-7-5-12t-13-6h-678q-8 0-13 6t-5 12v107q0 8 5 13t13 5h678q7 0 13-5t5-13z" horiz-adv-x="1000" />

<glyph glyph-name="floppy" unicode="&#xe818;" d="M214-7h429v214h-429v-214z m500 0h72v500q0 8-6 21t-11 20l-157 156q-5 6-19 12t-22 5v-232q0-22-15-38t-38-16h-322q-22 0-37 16t-16 38v232h-72v-714h72v232q0 22 16 38t37 16h465q22 0 38-16t15-38v-232z m-214 518v178q0 8-5 13t-13 5h-107q-7 0-13-5t-5-13v-178q0-7 5-13t13-5h107q7 0 13 5t5 13z m357-18v-518q0-22-15-38t-38-16h-750q-23 0-38 16t-16 38v750q0 22 16 38t38 16h517q23 0 50-12t42-26l156-157q16-15 27-42t11-49z" horiz-adv-x="857.1" />

<glyph glyph-name="euro" unicode="&#xe819;" d="M545 121l19-89q2-7-1-13t-10-8l-3 0q-2-1-6-2t-9-3-12-3-14-3-16-2-19-3-21-2-21 0q-131 0-228 73t-133 196h-53q-7 0-13 5t-5 13v63q0 7 5 12t13 6h37q-1 31 0 58h-37q-8 0-13 5t-5 13v64q0 8 5 13t13 5h55q37 117 135 188t224 72q57 0 108-13 6-2 11-9 4-6 2-13l-24-89q-2-7-8-11t-13-1l-2 1q-3 0-7 1l-10 2t-12 2-15 2-16 1-16 1q-71 0-126-36t-84-98h261q9 0 14-7 6-7 4-15l-13-63q-3-15-18-15h-273q-1-20 0-58h257q8 0 13-7 5-7 4-15l-14-63q-1-6-6-10t-11-4h-216q27-65 84-104t127-38q10 0 20 1t19 2 16 2 14 3 10 3l7 1 3 2q7 2 14-2 7-3 9-11z" horiz-adv-x="571.4" />

<glyph glyph-name="pound" unicode="&#xe81a;" d="M569 216v-205q0-8-5-13t-13-5h-533q-8 0-13 5t-5 13v83q0 8 5 13t13 5h54v214h-53q-8 0-13 5t-5 13v73q0 8 5 13t13 5h53v124q0 96 69 158t175 62q104 0 187-70 5-5 6-12t-4-12l-57-71q-5-6-13-7-7-1-13 4-2 3-14 11t-39 18-51 10q-48 0-77-27t-29-68v-120h170q8 0 13-5t5-13v-73q0-7-5-13t-13-5h-170v-211h231v101q0 7 5 12t13 5h90q8 0 13-5t5-12z" horiz-adv-x="571.4" />

<glyph glyph-name="dollar" unicode="&#xe81b;" d="M546 189q0-86-56-147t-144-77v-97q0-8-5-13t-13-5h-75q-7 0-13 5t-5 13v97q-37 5-71 18t-57 25-41 26-26 21-10 10q-9 12-1 23l58 76q3 5 12 6 9 1 14-5l1-1q63-55 135-70 21-4 42-4 45 0 79 24t35 68q0 16-9 30t-18 23-33 21-37 18-45 18q-21 9-34 14t-34 15-35 17-32 20-29 24-25 27-20 32-11 37-5 44q0 77 55 135t142 75v100q0 7 5 13t13 5h75q8 0 13-5t5-13v-98q32-3 62-13t48-19 36-20 21-17 9-7q9-11 3-22l-46-81q-4-9-12-9-8-2-15 4-2 2-9 7t-21 14-33 18-42 15-47 6q-53 0-87-24t-33-62q0-14 4-27t17-23 22-18 31-18 34-15 39-15q30-11 45-17t43-20 42-24 34-28 30-35 18-43 7-52z" horiz-adv-x="571.4" />

<glyph glyph-name="sort-down" unicode="&#xe81c;" d="M571 243q0-15-10-25l-250-250q-11-11-25-11t-25 11l-250 250q-11 10-11 25t11 25 25 11h500q14 0 25-11t10-25z" horiz-adv-x="571.4" />

<glyph glyph-name="plus-1" unicode="&#xe81d;" d="M550 400q30 0 30-50t-30-50l-210 0 0-210q0-30-50-30t-50 30l0 210-210 0q-30 0-30 50t30 50l210 0 0 210q0 30 50 30t50-30l0-210 210 0z" horiz-adv-x="580" />

<glyph glyph-name="minus-1" unicode="&#xe81e;" d="M550 400q30 0 30-50t-30-50l-520 0q-30 0-30 50t30 50l520 0z" horiz-adv-x="580" />

<glyph glyph-name="login-1" unicode="&#xe81f;" d="M800 800q42 0 71-29t29-71l0-700q0-40-29-70t-71-30l-450 0q-40 0-69 30t-29 70l0 100 98 0 0-100 450 0 0 700-450 0 0-150-98 0 0 150q0 42 29 71t69 29l450 0z m-350-670l0 120-450 0 0 150 450 0 0 120 200-194z" horiz-adv-x="900" />

<glyph glyph-name="logout" unicode="&#xe820;" d="M502 0l0 100 98 0 0-100q0-40-29-70t-71-30l-400 0q-40 0-70 30t-30 70l0 700q0 42 30 71t70 29l400 0q42 0 71-29t29-71l0-150-98 0 0 150-402 0 0-700 402 0z m398 326l-198-196 0 120-450 0 0 150 450 0 0 120z" horiz-adv-x="900" />

<glyph glyph-name="shortlist0" unicode="&#xe821;" d="M350 400q22 0 36-15t14-35-15-35-35-15l-300 0q-20 0-35 15t-15 35 14 35 36 15l300 0z m0-200q22 0 36-15t14-35-15-35-35-15l-300 0q-20 0-35 15t-15 35 14 35 36 15l300 0z m620 200q30 0 30-50t-30-50l-170 0 0-170q0-30-50-30t-50 30l0 170-164 0q-30 0-30 50t30 50l164 0 0 170q0 30 50 30t50-30l0-170 170 0z m-620 200q22 0 36-15t14-35-15-35-35-15l-300 0q-20 0-35 15t-15 35 14 35 36 15l300 0z" horiz-adv-x="1000" />

<glyph glyph-name="gauge" unicode="&#xe822;" d="M406 178q34 56 214 284t194 220q12-6-96-278t-138-326q-50-86-136-36t-38 136z m94 380q-168 0-284-127t-116-311q0-30 2-46 2-22-12-37t-34-17-36 12-18 34q0 8-1 26t-1 28q0 226 145 382t355 156q72 0 134-18l-70-86q-40 4-64 4z m362-62q138-154 138-376 0-38-2-56-2-20-16-33t-34-13l-4 0q-22 4-35 20t-11 36q2 14 2 46 0 150-80 268 6 14 20 51t22 57z" horiz-adv-x="1000" />

<glyph glyph-name="edit" unicode="&#xe823;" d="M966 671q24-23 24-55t-24-55l-185-185 0-469q0-21-15-36t-37-16l-676 0q-22 0-37 16t-16 36l0 677q0 21 16 37t37 15l468 0 185 185q24 24 55 24t55-24z m-523-486l327 328-112 112-328-327z m-134 69l4-86 88-4z m369-295l0 312-167-160q-20-20-63-33t-80-14l-159 0 0 159q0 41 11 82t31 61l165 167-312 0 0-574 574 0z m130 590l67 67-114 114-67-67z" horiz-adv-x="990" />

<glyph glyph-name="share" unicode="&#xe824;" d="M799 127q46 0 79-33t33-79-33-79-78-33-79 33-33 80q0 18 8 39l-169 122q-49-50-118-50t-118 49-50 119q0 9 3 26l-134 44q-16-14-36-14-24 0-40 16t-16 40 16 39 40 16q20 0 34-13t19-31l135-45q21 41 61 65t86 24q52 0 96-31l199 199q-16 30-16 55 0 46 33 79t79 33 78-33 33-79-33-78-79-33q-26 0-55 17l-199-200q31-44 31-96 0-37-17-73l169-121q33 26 71 26z" horiz-adv-x="928" />

<glyph glyph-name="trash-1" unicode="&#xe825;" d="M0 684q0 37 59 67t161 49 222 18q121 0 223-18t161-49 59-67q-10-80-39-227t-55-276-29-138q-6-36-39-68t-81-51-100-31-100-12-100 12-99 31-81 51-39 68q-4 21-33 160t-56 278-34 203z m126-223l38-183 87 75z m6 193q0-31 91-54t219-22q129 0 220 22t91 54q0 32-91 55t-220 22-219-22-91-55z m55-488l21-102 49 42z m8 312l101-87 71 62q-95 6-172 25z m5-246l101-88 96 83-101 87z m49-209q72-31 149-38l-97 83z m91 330l101-88 96 83-99 89z m6-247l102-88 95 83-102 88z m140 121l101-87 92 80-98 89z m14-241q71 8 134 36l-47 41z m8 466l73-66 106 91q-79-20-179-25z m117-105l93-84 41 199z m7-246l44-39 20 96z" horiz-adv-x="884.8" />

<glyph glyph-name="mail" unicode="&#xe826;" d="M0 62l0 576q0 1 3 19l339-290-338-325q-4 14-4 20z m45 635q7 3 17 3l913 0q9 0 18-3l-340-291-45-36-89-73-89 73-45 36z m1-694l341 327 132-107 132 107 341-327q-8-3-17-3l-913 0q-8 0-16 3z m650 364l338 290q3-9 3-19l0-576q0-9-3-20z" horiz-adv-x="1037" />

<glyph glyph-name="flag-circled" unicode="&#xe827;" d="M0 350q0 207 147 354t353 146 354-146 146-354-146-354-354-146-353 146-147 354z m217-281l76 0 0 258q64 17 117 5t105-34 93-39 88-11 87 45l0 303q-62-39-124-42t-106 17-105 40-106 20q-63 2-125-35l0-527z" horiz-adv-x="1000" />

<glyph glyph-name="download" unicode="&#xe828;" d="M0-150l0 135 1000 0 0-135-1000 0z m88 586l228 0 0 414 370 0 0-414 228 0-414-385z" horiz-adv-x="1000" />

<glyph glyph-name="shortlist2" unicode="&#xe829;" d="M0-150l0 1000 646 0-164-164-318 0 0-672 672 0 0 319 164 164 0-647-1000 0z m234 623l133 131 129-129 361 363 133-132-361-364-133-133z" horiz-adv-x="1000" />

<glyph glyph-name="asterisk" unicode="&#xe82a;" d="M0 395l57 176 351-116 0 370 184 0 0-370 351 116 57-176-352-113 217-299-148-108-217 299-217-299-148 108 217 299z" horiz-adv-x="1000" />

<glyph glyph-name="clipboard" unicode="&#xe82b;" d="M0-150l0 904 225 0 0-64-161 0 0-774 579 0 0 774-161 0 0 64 225 0 0-904-707 0z m129 129l0 31 31 0 0-31-31 0z m0 121l0 31 31 0 0-31-31 0z m0 121l0 31 31 0 0-31-31 0z m0 121l0 32 31 0 0-32-31 0z m0 121l0 32 31 0 0-32-31 0z m0 96l0 94 129 0 0 97q0 41 27 71t69 29 69-30 28-70q0-56-2-97l129 0 0-94-449 0z m96-582l0 33 353 0 0-33-353 0z m0 121l0 33 353 0 0-33-353 0z m0 121l0 33 353 0 0-33-353 0z m0 121l0 34 353 0 0-34-353 0z m0 121l0 34 353 0 0-34-353 0z m97 260q0-14 9-22t23-9 22 9 9 22-9 24-22 9-23-9-9-24z" horiz-adv-x="707" />

<glyph glyph-name="guidedog" unicode="&#xe82c;" d="M5 537q-14 29 12 42 13 6 26 2t18-13q20-31 58-51t69-20l315 0q-31-156-27-296-18 0-50 5t-48 6q-27 4-20-23l45-178q-2-49-39-55-15 0-31 11t-20 23l-56 222q-2 12-13 12t-15-12l-52-220q-10-36-43-36-22 0-35 18t-10 37l64 262 4 160q-45 12-89 39t-63 65z m394 164q-11 21 8 33 22 12 33-6l112-176q11-23-6-35-24-10-35 8z m90-690l39 160q2 8-2 16 2 185 26 293 78-102 211-129-4-12-13-34t-13-32q-4-14 4-41 29-114 61-231 4-29-16-41t-43-6-29 24l-45 172q-10 17-27 18t-24-18l-41-170q-10-26-33-28t-41 14-14 33z m96 508l135 139 23 86 53-63q6-2 26-6t31-8 24-12 18-21 12-45 14-41q12-11 25-21t33-33q18-36-48-71-28 2-52 6t-42 6q-24 4-41 8-4-10-7-22t-9-23q-58 12-113 44t-82 77z" horiz-adv-x="983" />

<glyph glyph-name="location" unicode="&#xe82d;" d="M0 475q0 156 109 266t266 109 266-109 109-266q0-78-28-160t-85-166-101-141-110-133q-20-25-49-25l-4 0q-29 0-49 25-66 77-110 133t-101 141-85 166-28 160z m63 0q0-72 28-150t85-161 95-128 100-120l2 0q2-2 2-4l4 4q62 73 100 120t94 128 86 161 29 150q0 129-92 221t-221 91-221-91-91-221z m125 8q0 78 54 133t133 54 133-54 55-133-55-133-133-55-133 55-54 133z m31 0q0-65 46-111t110-45 110 45 46 111-46 110-110 46-110-46-46-110z" horiz-adv-x="750" />

<glyph glyph-name="star" unicode="&#xe82e;" d="M1050 464q0-15-29-38l-275-200 105-323q5-17 5-30 0-24-18-24-17 0-38 17l-275 199-275-199q-23-17-39-17-18 0-18 23 0 11 6 31l105 323-275 200q-29 21-29 37 0 23 49 23l340-1 104 324q12 40 32 40 19 0 31-40l106-324 339 1q49 0 49-22z" horiz-adv-x="1050" />

<glyph glyph-name="user" unicode="&#xe82f;" d="M1070-88q0-21-2-63h-1067q0 10 0 31t-1 32q0 30 1 37 12 49 64 85t112 53 125 47 97 65q17 22 17 38 0 22-11 73-4 21-10 37t-16 33-16 31q-15 35-33 132-6 38-6 75 0 105 54 168t157 63 158-63 53-168q0-31-7-75-14-89-32-132-6-14-15-31t-16-33-11-37q-11-51-11-73 0-18 17-38 31-36 97-65t125-47 111-53 64-85q2-8 2-37z" horiz-adv-x="1070" />

<glyph glyph-name="left-open" unicode="&#xe830;" d="M308 349l346-346-154-154-500 500 500 500 154-154z" horiz-adv-x="654" />

<glyph glyph-name="right-open" unicode="&#xe831;" d="M154 849l500-500-500-500-154 154 346 346-346 346z" horiz-adv-x="654" />

<glyph glyph-name="linkedin-rect" unicode="&#xe832;" d="M196 850c-108 0-196-88-196-196l0-608c0-108 88-196 196-196l608 0c107 0 196 88 196 196l0 608c0 108-89 196-196 196l-608 0z m49-165c52 0 84-34 85-79 0-43-33-78-86-78l-1 0c-50 0-83 35-83 78 0 45 34 79 85 79z m445-208c100 0 174-65 174-205l0-260-151 0 0 243c0 61-22 102-76 102-42 0-67-28-78-55-4-10-5-23-5-37l0-253-151 0s2 411 0 454l151 0 0-64c20 31 56 75 136 75z m-521-11l151 0 0-454-151 0 0 454z" horiz-adv-x="1000" />

<glyph glyph-name="facebook-rect" unicode="&#xe833;" d="M183 850c-102 0-183-81-183-183l0-634c0-102 81-183 183-183l344 0 0 391-104 0 0 141 104 0 0 120c0 94 61 181 201 181 57 0 100-5 100-5l-4-132s-43 1-90 1c-50 0-58-24-58-62l0-103 152 0-6-141-146 0 0-391 141 0c102 0 183 81 183 183l0 634c0 102-81 183-183 183l-634 0z" horiz-adv-x="1000" />

<glyph glyph-name="gplus-squared" unicode="&#xe834;" d="M512 345q0 15-4 36h-202v-74h122q-2-13-10-28t-21-29-37-25-54-10q-55 0-94 40t-39 95 39 95 94 40q52 0 86-33l58 57q-60 55-144 55-89 0-151-62t-63-152 63-151 151-63q92 0 149 58t57 151z m192-26h61v62h-61v61h-61v-61h-61v-62h61v-61h61v61z m153 299v-536q0-66-47-113t-114-48h-535q-67 0-114 48t-47 113v536q0 66 47 113t114 48h535q67 0 114-48t47-113z" horiz-adv-x="857.1" />

<glyph glyph-name="pinterest-squared" unicode="&#xe835;" d="M696 779q67 0 114-48t47-113v-536q0-66-47-113t-114-48h-404q47 68 60 118 5 19 30 116 11-21 41-37t63-16q101 0 164 83t64 208q0 47-19 91t-54 77-85 54-110 21q-58 0-109-16t-85-43-60-61-37-71-12-74q0-57 22-101t65-61q7-3 13 0t8 10q6 25 9 35 3 12-7 23-28 35-28 84 0 83 58 143t151 59q83 0 130-45t47-117q0-94-38-160t-97-66q-33 0-54 25t-13 57q5 19 15 52t16 57 6 42q0 27-14 45t-42 18q-34 0-58-31t-24-78q0-40 13-68l-54-231q-14-56-4-142h-102q-67 0-114 48t-47 113v536q0 66 47 113t114 48h535z" horiz-adv-x="857.1" />

<glyph glyph-name="stackexchange" unicode="&#xe836;" d="M703 151v-37q0-47-32-81t-78-33h-32l-145-150v150h-295q-45 0-77 33t-32 81v37h691z m0 182v-143h-691v143h691z m0 183v-143h-691v143h691z m0 78v-37h-691v37q0 47 32 80t77 33h472q45 0 78-33t32-80z" horiz-adv-x="714.3" />

<glyph glyph-name="github-squared" unicode="&#xe837;" d="M290 180q2 4-2 8-5 4-8 1-2-4 2-7 5-4 8-2z m-16 23q-3 4-7 3-3-3 0-7 4-5 7-3 3 2 0 7z m-23 23q1 2-3 4-4 1-4-1-2-3 2-5 5-1 5 2z m12-13q1 0 1 2t-2 3q-4 4-6 2t1-6q3-3 6-1z m48-42q1 4-5 6-5 2-7-2-2-4 5-6 5-2 7 2z m23-2q0 5-6 5-6 0-6-5t6-4 6 4z m22 4q-1 4-7 3t-5-5q1-5 6-3t6 5z m358 177q0 118-83 202t-202 84-202-84-84-202q0-93 55-168t140-103q10-2 15 3t5 11q0 29-1 53-3-1-8-2t-20-1-27 3-24 11-17 23q-13 33-32 41-1 1-2 2l-5 5t-3 5 2 4 11 2q3 0 8-1t17-9 18-20q9-15 21-23t24-8 22 2 16 5q4 27 19 39-28 3-48 10t-41 22-31 42-11 67q0 44 30 77-14 34 3 75 10 4 30-4t34-16l14-9q33 9 72 9t71-9q6 4 16 10t31 14 32 5q16-41 3-75 29-33 29-77 0-32-8-56t-20-39-29-25-35-14-38-7q19-17 19-53 0-22 0-50t-1-28q0-7 5-11t15-3q86 29 141 103t54 168z m143 268v-536q0-66-47-113t-114-48h-535q-67 0-114 48t-47 113v536q0 66 47 113t114 48h535q67 0 114-48t47-113z" horiz-adv-x="857.1" />

<glyph glyph-name="twitter-squared" unicode="&#xe838;" d="M714 510q-31-14-67-19 38 22 52 65-37-21-75-28-34 36-85 36-49 0-83-34t-35-83q0-16 3-27-72 4-135 37t-107 86q-16-28-16-59 0-64 51-98-27 1-56 15v-1q0-42 28-75t68-40q-16-5-28-5-7 0-22 3 12-36 42-59t67-23q-64-50-145-50-15 0-28 2 82-53 180-53 62 0 117 20t94 53 67 76 42 91 13 94q0 10 0 15 35 25 58 61z m143 108v-536q0-66-47-113t-114-48h-535q-67 0-114 48t-47 113v536q0 66 47 113t114 48h535q67 0 114-48t47-113z" horiz-adv-x="857.1" />

<glyph glyph-name="angellist" unicode="&#xe839;" d="M532 639l-64-183 66-12q92 252 92 289 0 32-22 32-31 0-72-126z m-167-383l18-49q21 23 40 37l-18 3t-22 4-18 5z m-163 500q0-55 89-291 9 6 27 6 9 0 42-3l-68 196q-41 122-68 122-11 0-16-9t-6-21z m-44-424q0-20 29-66t65-86 56-39q8 0 14 8t7 15q0 13-18 57-7 17-18 40t-26 49-35 46-34 17q-12 0-26-15t-14-26z m-88-187q0-23 14-58 33-81 102-127t157-45q127 0 213 95 85 94 85 238 0 24 0 37t-7 35-17 31q-31 28-118 42t-151 15q-20 0-27-6-7-3-7-20 0-19 12-33t31-22 43-14 49-6 48-2 39 0h13q13 0 22-11 8-10 11-30-16-16-54-31-34-12-52-25-36-26-60-64t-25-76q0-18 10-50t10-49l-1-6q-3-7-3-8-76 5-81 120-5-1-23-1 1-4 1-11 0-30-22-50t-53-21q-46 0-93 44t-47 89q0 19 18 37 29-36 34-42 43-58 74-58 7 0 15 4t8 12q0 19-49 81t-65 62q-24 0-39-25t-15-51z m-64-5q0 57 24 91t76 49q-16 42-16 58 0 35 34 69t69 34q16 0 39-8-91 257-91 316 0 45 23 73t66 28q73 0 181-324 4-10 5-13 3 9 16 44t24 66 30 72 36 68 40 49 42 20q40 0 63-28t23-68q0-60-89-307 34-8 56-25t33-44 14-52 4-62q0-83-26-156t-74-126-117-83-156-31q-62 0-124 23-83 32-144 107t-61 160z" horiz-adv-x="714.3" />

<glyph glyph-name="xing-squared" unicode="&#xe83a;" d="M382 423q0 1-70 124-12 19-29 19h-103q-10 0-14-6-4-7 0-16l70-121v0l-109-193q-5-8 0-16 4-7 13-7h103q18 0 28 20z m349 277q-4 7-14 7h-104q-17 0-28-19l-229-407q1-1 146-269 11-19 29-19h103q10 0 14 7 4 7-1 15l-145 266v0l229 404q4 9 0 15z m126-82v-536q0-66-47-113t-114-48h-535q-67 0-114 48t-47 113v536q0 66 47 113t114 48h535q67 0 114-48t47-113z" horiz-adv-x="857.1" />

<glyph glyph-name="viadeo" unicode="&#xe83b;" d="M0 217q0-147 101-257t260-110q158 0 259 110 101 108 101 257 0 78-27 146-40-25-85-34 22-51 22-114 0-76-36-142-37-66-99-101-62-36-135-36-75 0-136 36-63 37-98 101-37 65-37 142 0 117 80 202 80 83 191 83 51 0 98-19 4 39 27 86-57 21-125 21-160 0-266-118-95-107-95-253z m280-253l56-4q74 47 125 109t72 124 31 126q6 41 6 80 0 21-2 40-5 55-12 99t-16 68l-9 25q-22 68-43 119t-32 67l-11 17q39-20 63-48 23-29 28-53 4-20 4-39l0-7q-1-22-6-35l-5-13q4-58 5-112 0-52-5-102-9-100-30-167t-50-121-57-86-55-52-41-28z m275 637q4 40 23 64l18 25q12 14 39 27t48 18l21 6q36 8 67 35t43 51l13 23q41-57 49-129 4-32 3-57 0-34-6-59l-11-45q-12-33-33-60t-37-37l-15-11q-34-20-67-20l-109 53q58 32 101 65t64 58 33 44 14 31l2 10q-18-40-48-73t-62-52-61-32-47-19l-18-5q-25 44-25 79 0 5 1 10z" horiz-adv-x="879" />

<glyph glyph-name="quora" unicode="&#xe83c;" d="M0 399q0 122 60 226t161 165 223 60q184 0 315-132t130-319q0-119-57-220t-154-163q1-2 4-6t11-17 21-22 33-21 45-17l0-76q-36-7-67-7-50 0-85 18-56 29-91 94-48-13-105-13-120 0-222 61t-162 164-60 225z m221-59q0-116 67-198t160-83q26 0 52 8-2 3-5 9t-15 18-23 24-31 19-37 10l0 88q10 1 20 1 119 0 203-90 63 81 63 194l0 116q0 116-66 199t-161 82-160-82-67-199l0-116z" horiz-adv-x="889" />

<glyph glyph-name="youtube-squared" unicode="&#xe83d;" d="M513 123v88q0 27-16 27-10 0-19-8v-125q9-9 19-9 16 0 16 27z m103 68h36v19q0 28-18 28t-18-28v-19z m-319 148v-39h-45v-236h-41v236h-44v39h130z m112-70v-205h-37v23q-22-25-43-25-18 0-23 15-3 10-3 30v162h36v-151q0-13 1-14 0-8 8-8 11 0 24 17v156h37z m141-62v-81q0-29-4-41-7-23-30-23-19 0-38 22v-20h-37v275h37v-89q18 22 38 22 23 0 30-24 4-11 4-41z m140-72v-5q0-16-1-24-2-12-9-22-15-22-44-22-29 0-46 21-11 15-11 48v72q0 33 11 48 16 21 45 21t43-21q12-16 12-48v-43h-74v-36q0-28 19-28 13 0 16 14 0 1 1 4t0 9v12h38z m-252 460v-87q0-28-18-28t-18 28v87q0 29 18 29t18-29z m298-398q0 99-11 145-6 25-24 41t-42 20q-76 8-230 8-154 0-230-8-24-3-42-20t-24-41q-11-48-11-145 0-98 11-145 5-24 24-41t42-19q76-9 230-9t230 9q24 2 42 19t23 41q12 47 12 145z m-422 363l50 166h-41l-29-109-29 109h-44q4-13 13-39l13-38q20-58 26-89v-112h41v112z m161-45v73q0 32-11 48-16 22-44 22-28 0-43-22-12-16-12-48v-73q0-32 12-48 15-22 43-22 28 0 44 22 11 15 11 48z m102-67h37v207h-37v-158q-13-17-24-17-8 0-9 8 0 2 0 15v152h-38v-164q0-20 4-30 6-16 24-16 20 0 43 26v-23z m280 170v-536q0-66-47-113t-114-48h-535q-67 0-114 48t-47 113v536q0 66 47 113t114 48h535q67 0 114-48t47-113z" horiz-adv-x="857.1" />

<glyph glyph-name="tumblr-squared" unicode="&#xe83e;" d="M634 35l-35 102q-24-12-57-12-20-1-35 5t-21 18-10 23-3 24v222h144v108h-143v182h-105q-5 0-5-5-3-25-10-49t-22-53-43-53-66-38v-92h73v-233q0-32 12-64t36-62 68-48 98-17q39 0 76 14t48 28z m223 583v-536q0-66-47-113t-114-48h-535q-67 0-114 48t-47 113v536q0 66 47 113t114 48h535q67 0 114-48t47-113z" horiz-adv-x="857.1" />

<glyph glyph-name="meetup" unicode="&#xe83f;" d="M0 390q0 35 2 105 24 8 48 8l18 0q17-23 40-70t31-61q2 7 8 37t10 42 11 37 16 40 19 31q28-5 46-5 6 0 11 1 24-54 46-163t38-155q-1 0-4 1l-3 1q-9 0-26-5t-22-7q-40 101-62 203-15-26-15-89t-11-88l-5 2q-8 0-22-2t-21-2l-18 0q-27 48-57 89-3-6-3-15t3-26 2-25l-1-12q-30-15-52-15-7 0-10 1-17 56-17 142z m355-76q0 27 8 58t28 57 47 26q10 0 28-5t23-6q9-40 9-81 0-28-6-55-12 4-38 5t-37 3q-5-20-5-37 0-21 10-37t30-16q9 0 26 5t26 5q17 0 23-14-42-16-82-16-46 0-68 30t-22 78z m58 28l8 1q3 0 8-2t7-2l7 3q2 14 2 22 0 18-5 40-22-25-27-62z m110-54q0 123 78 182 32-3 60-23-1-17-8-67-5-39-5-65l0-14q-20-2-29-2-8 0-43 5-5-12-5-23 0-22 17-37t39-16q26 0 41 23 18-6 21-17-22-21-63-21-37 0-70 20t-33 55z m56 43q4-6 14-6l9 0q9 19 9 49 0 13-6 39-3-8-10-25t-11-30-5-27z m99 19q-2 26 23 26 6 0 18-1t17-1q3 15 3 31 0 29-7 87t-8 86q0 43 10 72 5-3 27-5t40-25q-6-26-6-67 0-20 4-81 2-35 2-61 0-20-1-34l6 0q7 0 9 6t2 13 4 6q8 0 19-8t22-22 15-16q-9-7-40-9t-39-4q-1-12-1-36 0-16 1-33t1-38 1-33q-8-1-23-2t-22-2l0 20q0 21-3 57-4 44-4 61-6 2-32 4t-38 9z m215 8q0 20 2 58 11-1 20-5t21-10 18-10l-1-27q0-59 9-116 19 7 31 23t17 42 5 42 2 44l0 11q3-1 9-1 20-2 49-25 0-3 1-9t0-10q0-15-4-30t-7-22-15-25-14-23q-15-12-34-42-21-7-38-7-71 0-71 142z m200-108q7 6 24 10 0 3 1 9 4 35 7 57t13 59 22 59 35 40 53 17q34 0 76-24 17-37 17-75 0-66-46-119t-113-68q-2-32-2-48 0-73 18-117-8 2-37 2-15 0-22 2-9 21-16 96t-30 100z m90 25q39 10 66 48t26 79q0 30-15 56-23-21-39-55t-23-60-15-68z" horiz-adv-x="1341" />

<glyph glyph-name="photo" unicode="&#xe840;" d="M0-25l0 750q0 53 36 89t89 36l687 0q53 0 89-36t36-89l0-750q0-53-36-89t-89-36l-687 0q-53 0-89 36t-36 89z m63 0q0-25 18-44t44-19l687 0q26 0 44 19t19 44l0 750q0 25-19 44t-44 18l-687 0q-25 0-44-18t-18-44l0-750z m62 156l0 563q0 13 9 22t22 9l625 0q14 0 23-9t9-22l0-563q0-13-9-22t-23-9l-625 0q-13 0-22 9t-9 22z m31 0l483 0-88 100-18 21-252 286-125-145 0-262z m0 311l102 117q10 10 23 10t24-10l246-281 82 94q10 9 23 9t24-9l101-112 0 434-625 0 0-252z m344 96q0 39 27 66t67 27 66-27 28-66-28-67-66-27-67 27-27 67z m31 0q0-26 19-44t44-19 44 19 18 44-18 43-44 19-44-19-19-43z m41-284l108-123 101 0 0 82-125 137z" horiz-adv-x="937" />

<glyph glyph-name="thumbs-up" unicode="&#xe841;" d="M811 470q38-13 58-51t15-77l-35-312q-6-39-32-70t-58-44q-5-1-26-9t-29-11-30-7-45-6-56-2q-83 0-174 26t-130 56q-1 1-3 2t-4 4-3 4q-46-40-103-40-65 0-110 45t-46 111l0 313q0 65 46 110t110 46q77 0 124-63 44 44 64 85t21 108q0 54 38 92t92 39 92-39 38-92q0-94-16-188 170-17 202-30z m-655-432q22 0 37 15t16 36l0 313q0 21-16 36t-37 16-37-16-15-36l0-313q0-21 15-36t37-15z m590 7l35 312q3 12-6 16-15 4-107 15t-119 14l-69-10 16 73q25 117 25 223 0 10-8 18t-18 8-18-8-8-18q0-54-11-98t-32-78-37-51-40-43q-36-36-36-69l0-260q0-30 18-44 24-17 99-38t143-22q26 0 45 1t35 5 23 5 23 9 24 9q6 3 14 13t9 18z" horiz-adv-x="885" />

<glyph glyph-name="thumbs-down" unicode="&#xe842;" d="M729 768q65 0 111-46t45-110l0-313q0-65-45-111t-111-45q-76 0-124 62-42-42-63-84t-21-109q0-54-38-92t-92-39-92 39-39 92q0 95 16 188-173 19-201 29-37 14-59 52t-15 78l35 311q7 38 32 70t58 44q5 1 26 9t29 11 30 8 45 6 57 1q82 0 174-26t131-55q2-1 5-5t3-5q47 40 103 40z m-313-755q0 54 11 97t33 78 36 52 40 43q37 36 37 69l0 260q0 11-7 25t-12 18q-24 18-99 39t-142 21q-27 0-46-1t-35-4-23-6-23-9-23-8q-7-3-15-13t-9-19l-34-311q-2-12 5-16 15-4 108-15t118-14l69 10-15-74q-25-122-25-222 0-10 8-18t17-9 18 9 8 18z m365 286l0 313q0 21-15 36t-37 15-36-15-15-36l0-313q0-21 15-37t36-15 37 15 15 37z" horiz-adv-x="885" />

<glyph glyph-name="careerbuilder-logo" unicode="&#xe843;" d="M449 714c-44-6-103-26-144-49-54-33-119-99-147-155-80-153-54-337 66-458 48-48 102-81 172-103l41-12 240-2 239-1 0 392 0 393-218 0c-121-1-233-3-249-5z m56-28c0-13 1-14 19-14 53 0 140-32 191-72 39-30 76-76 98-121 17-36 33-86 33-109l0-11-125 0-125 1-13 20c-18 28-55 47-87 44-32-3-63-23-78-49-26-44-12-103 32-131 16-11 24-13 50-13 38 0 62 11 81 38l14 20 126 0c144 0 131 5 117-48-36-140-162-249-299-259l-34-3 0-14 0-14-36 3c-143 11-274 116-322 256-70 208 62 436 281 483 18 4 42 7 55 7 21 1 22 0 22-14z m-269-152c-42-55-64-112-71-188-7-82 26-179 83-243l10-12 76 76 76 77-11 16c-27 41-27 96 2 136l10 13-76 76-77 77-22-28z m107-376l-76-77 29-22c53-39 108-62 168-67l31-3 0 108 0 108-12 0c-15 0-50 15-55 23-2 3-5 5-6 5-2 0-38-34-79-75z" horiz-adv-x="1107" />

<glyph glyph-name="folder-add" unicode="&#xe844;" d="M781 663q65 0 111-46t46-110l0-417q0-65-46-110t-111-46l-625 0q-65 0-110 46t-46 110l0 520q0 65 46 111t110 46l209 0q43 0 73-31t31-73l312 0z m0-625q22 0 37 15t16 37l0 364-209 0q-10 0-18 8t-8 18 8 18 18 9l209 0q0 21-16 36t-37 16l-312 0q-44 0-74 31t-30 73l-209 0q-21 0-37-16t-15-37l0-103 209 0q10 0 18-9t8-18-8-18-18-8l-209 0 0-364q0-21 15-37t37-15l625 0z m-156 312q21 0 37-15t16-37-16-36-37-15l-104 0 0-105q0-22-15-37t-37-15-37 15-16 37l0 105-103 0q-22 0-37 15t-16 36 16 37 37 15l103 0 0 104q0 21 16 37t37 16 37-16 15-37l0-104 104 0z" horiz-adv-x="938" />

<glyph glyph-name="vcard" unicode="&#xe845;" d="M900 750q42 0 71-29t29-71l0-600q0-40-29-70t-71-30l-800 0q-40 0-70 30t-30 70l0 600q0 42 30 71t70 29l800 0z m0-700l0 600-800 0 0-600 800 0z m-450 196l0-90-250 0 0 90 250 0z m0 150l0-90-250 0 0 90 250 0z m0 150l0-90-250 0 0 90 250 0z m346-320l4-70-250 0q0 70 6 70 84 22 84 66 0 16-27 56t-27 88q0 110 90 110t90-110q0-48-28-88t-28-56q0-20 21-36t43-22z" horiz-adv-x="1000" />

<glyph glyph-name="clock" unicode="&#xe846;" d="M1000 349q0-136-67-251t-182-182-251-67-251 67-182 182-67 251 67 251 182 182 251 67 251-67 182-182 67-251z m-117 0q0 158-112 271t-271 112q-126 0-226-74l2-2q-48-35-83-83l-2 2q-74-100-74-226 0-158 113-270t270-113q126 0 226 74l-2 2q48 35 83 83l2-2q74 100 74 226z m-203-200q0-25-17-42t-43-18q-26 0-42 18l-120 120q-18 18-18 62v320q0 25 18 43t42 17 43-17 17-43v-315l102-103q18-16 18-42z" horiz-adv-x="1000" />

<glyph glyph-name="table" unicode="&#xf0ce;" d="M286 82v107q0 8-5 13t-13 5h-179q-7 0-12-5t-6-13v-107q0-8 6-13t12-5h179q8 0 13 5t5 13z m0 214v108q0 7-5 12t-13 5h-179q-7 0-12-5t-6-12v-108q0-7 6-12t12-5h179q8 0 13 5t5 12z m285-214v107q0 8-5 13t-12 5h-179q-8 0-13-5t-5-13v-107q0-8 5-13t13-5h179q7 0 12 5t5 13z m-285 429v107q0 8-5 13t-13 5h-179q-7 0-12-5t-6-13v-107q0-8 6-13t12-5h179q8 0 13 5t5 13z m285-215v108q0 7-5 12t-12 5h-179q-8 0-13-5t-5-12v-108q0-7 5-12t13-5h179q7 0 12 5t5 12z m286-214v107q0 8-5 13t-13 5h-178q-8 0-13-5t-5-13v-107q0-8 5-13t13-5h178q8 0 13 5t5 13z m-286 429v107q0 8-5 13t-12 5h-179q-8 0-13-5t-5-13v-107q0-8 5-13t13-5h179q7 0 12 5t5 13z m286-215v108q0 7-5 12t-13 5h-178q-8 0-13-5t-5-12v-108q0-7 5-12t13-5h178q8 0 13 5t5 12z m0 215v107q0 8-5 13t-13 5h-178q-8 0-13-5t-5-13v-107q0-8 5-13t13-5h178q8 0 13 5t5 13z m72 178v-607q0-37-27-63t-63-26h-750q-36 0-63 26t-26 63v607q0 37 26 63t63 27h750q37 0 63-27t27-63z" horiz-adv-x="928.6" />

<glyph glyph-name="exchange" unicode="&#xf0ec;" d="M1000 189v-107q0-7-5-12t-13-6h-768v-107q0-7-5-12t-13-6q-6 0-13 6l-178 178q-5 6-5 13 0 8 5 13l179 178q5 5 12 5 8 0 13-5t5-13v-107h768q7 0 13-5t5-13z m0 304q0-8-5-13l-179-178q-5-6-12-6-8 0-13 6t-5 12v107h-768q-7 0-13 6t-5 12v107q0 8 5 13t13 5h768v107q0 8 5 13t13 5q6 0 13-5l178-178q5-5 5-13z" horiz-adv-x="1000" />

<glyph glyph-name="angle-up" unicode="&#xf106;" d="M600 189q0-7-6-12l-28-28q-5-6-12-6t-13 6l-220 219-219-219q-5-6-13-6t-12 6l-28 28q-6 5-6 12t6 13l260 260q5 6 12 6t13-6l260-260q6-5 6-13z" horiz-adv-x="642.9" />

<glyph glyph-name="puzzle" unicode="&#xf12e;" d="M929 237q0-45-25-75t-69-30q-23 0-43 10t-33 21-32 21-39 10q-62 0-62-69 0-22 9-65t8-64v-3q-12 0-18 0-19-2-54-7t-65-7-54-3q-35 0-58 15t-23 47q0 20 9 39t22 32 21 33 10 43q0 44-31 69t-75 25q-47 0-80-26t-33-71q0-24 9-46t18-36 19-30 8-28q0-25-25-50-21-19-65-19-54 0-137 13-5 1-16 2t-15 3l-7 1q-1 0-2 0-1 0-1 1v571q1 0 10-2t19-2 12-2q83-14 137-14 44 0 65 20 25 24 25 49 0 13-8 29t-19 29-18 36-9 47q0 45 33 71t81 25q44 0 74-25t31-69q0-23-10-43t-21-33-22-31-9-40q0-32 23-47t58-14q35 0 100 8t91 9v-1q-1-1-2-9t-3-19-2-12q-13-84-13-137 0-45 19-65 25-26 50-26 12 0 28 8t30 19 36 19 46 8q46 0 71-33t26-80z" horiz-adv-x="928.6" />
</font>
</defs>
</svg>