{
   "general" : {
      "location_input_id" : "898185"
   },
   "path" : {
      "base_url" : "https://rs.careersinconstruction.com",
      "cv_download" : "https://rs.careersinconstruction.com/cv-download",
      "cv_unlock" : "https://rs.careersinconstruction.com/cv-unlock",
      "login_form_path" : "https://rs.careersinconstruction.com/login",
      "profile_path" : "https://rs.careersinconstruction.com/cv-details/",
      "search_form" : "https://rs.careersinconstruction.com/cv-search/"
   },
   "token_ref" : {
      "898184" : {
         "Label" : "Sectors",
         "Type" : "MultiList",
         "Values" : [
            [
               "Architect",
               "898184|513562"
            ],
            [
               "Architectural Assistant",
               "898184|513584"
            ],
            [
               "Architectural Technician",
               "898184|513585"
            ],
            [
               "Asbestos Removal",
               "898184|1026433"
            ],
            [
               "Bid Manager",
               "898184|513600"
            ],
            [
               "BIM",
               "898184|1026434"
            ],
            [
               "Building Surveyor",
               "898184|513563"
            ],
            [
               "Building Trades",
               "898184|1026531"
            ],
            [
               "Business Development",
               "898184|1026515"
            ],
            [
               "Buying",
               "898184|1026516"
            ],
            [
               "CAD Technician",
               "898184|513565"
            ],
            [
               "Clerk of Works",
               "898184|1026435"
            ],
            [
               "Commercial Manager",
               "898184|513567"
            ],
            [
               "Construction Compliance",
               "898184|1026436"
            ],
            [
               "Construction Manager",
               "898184|513601"
            ],
            [
               "Contractors Engineering Manager",
               "898184|513617"
            ],
            [
               "Contracts Manager",
               "898184|513568"
            ],
            [
               "Corporate Strategy",
               "898184|1026437"
            ],
            [
               "Design",
               "898184|1026533"
            ],
            [
               "Ecologist",
               "898184|513620"
            ],
            [
               "Engineer",
               "898184|1026438"
            ],
            [
               "Equipment Hire",
               "898184|1026439"
            ],
            [
               "Estimator",
               "898184|513570"
            ],
            [
               "Financial Management",
               "898184|1026440"
            ],
            [
               "Fleet Management",
               "898184|1026441"
            ],
            [
               "Flood Management",
               "898184|1026442"
            ],
            [
               "Health & Safety Advisor",
               "898184|513625"
            ],
            [
               "HR",
               "898184|1026443"
            ],
            [
               "Inspector",
               "898184|513628"
            ],
            [
               "Learning / Development",
               "898184|1026444"
            ],
            [
               "Lecturer",
               "898184|513629"
            ],
            [
               "Legal",
               "898184|1026445"
            ],
            [
               "Logistics",
               "898184|1026446"
            ],
            [
               "Planner",
               "898184|513574"
            ],
            [
               "Principal",
               "898184|1026447"
            ],
            [
               "Product Manager",
               "898184|1026448"
            ],
            [
               "Project Architect",
               "898184|513598"
            ],
            [
               "Project Engineer",
               "898184|513635"
            ],
            [
               "Project Manager",
               "898184|513575"
            ],
            [
               "Project Surveyor",
               "898184|513654"
            ],
            [
               "Quality Control",
               "898184|1026450"
            ],
            [
               "Quantity Surveyor",
               "898184|513576"
            ],
            [
               "Sales",
               "898184|1026451"
            ],
            [
               "Services Procurement",
               "898184|1026452"
            ],
            [
               "Site Engineer",
               "898184|513577"
            ],
            [
               "Site Manager",
               "898184|513578"
            ],
            [
               "Site Operative",
               "898184|1026453"
            ],
            [
               "Software Development",
               "898184|1026454"
            ],
            [
               "Structural Engineer",
               "898184|513580"
            ],
            [
               "Surveyor",
               "898184|513655"
            ],
            [
               "Technician",
               "898184|1026455"
            ],
            [
               "Tendering",
               "898184|1026456"
            ],
            [
               "Town Planning",
               "898184|1026457"
            ],
            [
               "Training",
               "898184|1026458"
            ],
            [
               "Transport Planning",
               "898184|1026459"
            ]
         ]
      },
      "898186" : {
         "Label" : "Relocate",
         "Type" : "MultiList",
         "Values" : [
            [
               "Yes",
               "898186|513301"
            ],
            [
               "No",
               "898186|513302"
            ]
         ]
      },
      "898187" : {
         "Label" : "Current Salary",
         "Type" : "MultiList",
         "Values" : [
            [
               "\u00a30 - \u00a39,999",
               "898187|1531535"
            ],
            [
               "\u00a310,000 - \u00a319,999",
               "898187|1531536"
            ],
            [
               "\u00a320,000 - \u00a329,999",
               "898187|1531537"
            ],
            [
               "\u00a330,000 - \u00a339,999",
               "898187|1531538"
            ],
            [
               "\u00a340,000 - \u00a349,999",
               "898187|1531539"
            ],
            [
               "\u00a350,000 - \u00a359,999",
               "898187|1531540"
            ],
            [
               "\u00a360,000 - \u00a369,999",
               "898187|1531541"
            ],
            [
               "\u00a370,000 - \u00a379,999",
               "898187|1531542"
            ],
            [
               "\u00a380,000+",
               "898187|1531543"
            ]
         ]
      },
      "898189" : {
         "Label" : "Availability",
         "Type" : "MultiList",
         "Values" : [
            [
               "Immediately",
               "898189|3065706"
            ],
            [
               "One week",
               "898189|3065707"
            ],
            [
               "One month",
               "898189|3065708"
            ],
            [
               "Two months",
               "898189|3065709"
            ],
            [
               "Three months",
               "898189|3065710"
            ],
            [
               "Four months",
               "898189|3065711"
            ],
            [
               "Five months",
               "898189|3065712"
            ],
            [
               "Six months",
               "898189|3065713"
            ],
            [
               "One year",
               "898189|3065714"
            ],
            [
               "Two years",
               "898189|3065715"
            ]
         ]
      },
      "898190" : {
         "Label" : "Preferred Job Type",
         "Type" : "MultiList",
         "Values" : [
            [
               "Consultant",
               "898190|2044701"
            ],
            [
               "Contract/Temporary/Project",
               "898190|2038546"
            ],
            [
               "Permanent",
               "898190|2038545"
            ]
         ]
      },
      "898191" : {
         "Label" : "Preferred Hours",
         "Type" : "MultiList",
         "Values" : [
            [
               "Full time",
               "898191|2552703"
            ],
            [
               "Part time",
               "898191|2552704"
            ]
         ]
      }
   }
}
