{
   "general" : {
      "location_input_id" : "15"
   },
   "path" : {
      "base_url" : "https://recruiters.leisurejobs.com/",
      "cv_download" : "https://recruiters.leisurejobs.com/cv-download",
      "cv_unlock" : "https://recruiters.leisurejobs.com/cv-unlock",
      "login_form_path" : "https://recruiters.leisurejobs.com/login",
      "profile_path" : "https://recruiters.leisurejobs.com/cv-details/",
      "search_form" : "https://recruiters.leisurejobs.com/cv-search/"
   },
   "token_ref" : {
      "11" : {
         "Label" : "Sectors",
         "Type" : "groupedMultiList",
         "Values" : [
            {
               "Label" : "Bar & Pub jobs",
               "Options" : [
                  [
                     "Area Manager",
                     "11|337"
                  ],
                  [
                     "Assistant Bar Manager",
                     "11|338"
                  ],
                  [
                     "Assistant Pub Manager",
                     "11|339"
                  ],
                  [
                     "Assistant Restaurant & Bars Manager",
                     "11|340"
                  ],
                  [
                     "Bar and Floor Staff",
                     "11|341"
                  ],
                  [
                     "Bar Manager",
                     "11|342"
                  ],
                  [
                     "Bar Regional Manager",
                     "11|343"
                  ],
                  [
                     "Bar Staff",
                     "11|344"
                  ],
                  [
                     "Bar Staff personal license holder",
                     "11|345"
                  ],
                  [
                     "Bar Supervisor",
                     "11|346"
                  ],
                  [
                     "Bartender",
                     "11|347"
                  ],
                  [
                     "Cellar Manager",
                     "11|348"
                  ],
                  [
                     "Cellar Person",
                     "11|349"
                  ],
                  [
                     "Chef and Cook (Bar & Pub)",
                     "11|513167"
                  ],
                  [
                     "Cocktail Bar jobs",
                     "11|350"
                  ],
                  [
                     "Cocktail Bar Manager",
                     "11|351"
                  ],
                  [
                     "Conference and Banqueting Manager",
                     "11|352"
                  ],
                  [
                     "Destination Pub Manager",
                     "11|353"
                  ],
                  [
                     "Floor Supervisor",
                     "11|354"
                  ],
                  [
                     "Gastro Pub Manager",
                     "11|355"
                  ],
                  [
                     "High Street Manager",
                     "11|356"
                  ],
                  [
                     "Host",
                     "11|357"
                  ],
                  [
                     "Hotel Bar Manager",
                     "11|358"
                  ],
                  [
                     "Late Licence and Nightclub Management",
                     "11|359"
                  ],
                  [
                     "Late License Bar Manager",
                     "11|360"
                  ],
                  [
                     "Late License Manager",
                     "11|361"
                  ],
                  [
                     "Mixologist",
                     "11|362"
                  ],
                  [
                     "Music Venue Manager",
                     "11|363"
                  ],
                  [
                     "Night Club Manager",
                     "11|364"
                  ],
                  [
                     "Operations Director",
                     "11|365"
                  ],
                  [
                     "Pub Area Manager",
                     "11|366"
                  ],
                  [
                     "Pub General Manager",
                     "11|367"
                  ],
                  [
                     "Pub Manager",
                     "11|368"
                  ],
                  [
                     "Pub Tenancy",
                     "11|369"
                  ],
                  [
                     "Senior Bar staff",
                     "11|370"
                  ],
                  [
                     "Senior Management (Bar & Pub)",
                     "11|371"
                  ],
                  [
                     "Shift Manager",
                     "11|372"
                  ],
                  [
                     "Sommelier",
                     "11|373"
                  ],
                  [
                     "Style Bar Manager",
                     "11|374"
                  ]
               ]
            },
            {
               "Label" : "Chef jobs",
               "Options" : [
                  [
                     "Area Head Chef",
                     "11|376"
                  ],
                  [
                     "Baker",
                     "11|377"
                  ],
                  [
                     "Breakfast Chef",
                     "11|378"
                  ],
                  [
                     "Chef",
                     "11|379"
                  ],
                  [
                     "Chef de Partie",
                     "11|380"
                  ],
                  [
                     "Chef Manager",
                     "11|381"
                  ],
                  [
                     "Commis Chef",
                     "11|382"
                  ],
                  [
                     "Cook",
                     "11|383"
                  ],
                  [
                     "Demi Chef De Partie",
                     "11|384"
                  ],
                  [
                     "Development Chef",
                     "11|385"
                  ],
                  [
                     "Executive Chef",
                     "11|386"
                  ],
                  [
                     "Head Chef",
                     "11|387"
                  ],
                  [
                     "Junior Sous Chef",
                     "11|388"
                  ],
                  [
                     "Kitchen Porter",
                     "11|389"
                  ],
                  [
                     "Kitchen Staff",
                     "11|390"
                  ],
                  [
                     "Pastry Chef",
                     "11|391"
                  ],
                  [
                     "Pizza Chef",
                     "11|392"
                  ],
                  [
                     "Pot Washer",
                     "11|393"
                  ],
                  [
                     "Prep Chef",
                     "11|394"
                  ],
                  [
                     "Private Chef",
                     "11|395"
                  ],
                  [
                     "Senior Management (Chef)",
                     "11|396"
                  ],
                  [
                     "Sous Chef",
                     "11|397"
                  ],
                  [
                     "Sushi Chef",
                     "11|398"
                  ],
                  [
                     "Trainee Chef",
                     "11|399"
                  ]
               ]
            },
            {
               "Label" : "Childcare jobs",
               "Options" : [
                  [
                     "Creche Assistant",
                     "11|401"
                  ],
                  [
                     "Creche Manager",
                     "11|402"
                  ],
                  [
                     "Deputy Creche Supervisor",
                     "11|403"
                  ],
                  [
                     "Kids Activity Coordinator",
                     "11|404"
                  ],
                  [
                     "Kids and Childcare Franchise",
                     "11|405"
                  ],
                  [
                     "Nursery Nurse",
                     "11|406"
                  ],
                  [
                     "Room Supervisors",
                     "11|407"
                  ],
                  [
                     "Senior Management (Childcare)",
                     "11|408"
                  ],
                  [
                     "Trainee Nursery Nurse",
                     "11|409"
                  ]
               ]
            },
            {
               "Label" : "Commercial Leisure, Attractions & Entertainment jobs",
               "Options" : [
                  [
                     "Casino & Gaming",
                     "11|513156"
                  ],
                  [
                     "Centre Manager",
                     "11|513126"
                  ],
                  [
                     "Chef and Cook (CLAE)",
                     "11|513168"
                  ],
                  [
                     "Duty Manager",
                     "11|513138"
                  ],
                  [
                     "Food & Beverage Manager",
                     "11|513144"
                  ],
                  [
                     "Food & Beverage Staff",
                     "11|513150"
                  ],
                  [
                     "Front of House",
                     "11|513147"
                  ],
                  [
                     "General Manager (CLAE)",
                     "11|513129"
                  ],
                  [
                     "Maintenance Manager (CLAE)",
                     "11|513141"
                  ],
                  [
                     "Operations Manager (CLAE)",
                     "11|513132"
                  ],
                  [
                     "Sales Manager (CLAE)",
                     "11|513135"
                  ],
                  [
                     "Team Members",
                     "11|513153"
                  ]
               ]
            },
            {
               "Label" : "Financial & Support jobs",
               "Options" : [
                  [
                     "Accountant",
                     "11|411"
                  ],
                  [
                     "Accounts Assistant",
                     "11|412"
                  ],
                  [
                     "Administrator",
                     "11|413"
                  ],
                  [
                     "Assistant Manager",
                     "11|414"
                  ],
                  [
                     "Auditor",
                     "11|415"
                  ],
                  [
                     "Cloakroom Attendant",
                     "11|416"
                  ],
                  [
                     "Credit Controller",
                     "11|417"
                  ],
                  [
                     "Customer Service",
                     "11|418"
                  ],
                  [
                     "Door Manager",
                     "11|419"
                  ],
                  [
                     "Finance Manager",
                     "11|420"
                  ],
                  [
                     "Financial Controller",
                     "11|421"
                  ],
                  [
                     "Head Office Support Staff",
                     "11|422"
                  ],
                  [
                     "HR Administrator",
                     "11|423"
                  ],
                  [
                     "Membership Administrator",
                     "11|424"
                  ],
                  [
                     "Payroll",
                     "11|425"
                  ],
                  [
                     "Personnel Manager",
                     "11|426"
                  ],
                  [
                     "Senior Management (Admin)",
                     "11|427"
                  ],
                  [
                     "Site Administrator",
                     "11|428"
                  ],
                  [
                     "Switchboard Operator",
                     "11|429"
                  ]
               ]
            },
            {
               "Label" : "Fitness jobs",
               "Options" : [
                  [
                     "Aerobics Instructor",
                     "11|431"
                  ],
                  [
                     "Area Manager (Fitness)",
                     "11|432"
                  ],
                  [
                     "Assistant Manager (Fitness)",
                     "11|433"
                  ],
                  [
                     "Contract Manager",
                     "11|434"
                  ],
                  [
                     "Deputy Manager",
                     "11|435"
                  ],
                  [
                     "Fitness Franchise",
                     "11|436"
                  ],
                  [
                     "Fitness Instructor",
                     "11|437"
                  ],
                  [
                     "Fitness Management",
                     "11|438"
                  ],
                  [
                     "Fitness Support Assistant",
                     "11|439"
                  ],
                  [
                     "Fitness Team Leader",
                     "11|440"
                  ],
                  [
                     "General Manager (Fitness)",
                     "11|441"
                  ],
                  [
                     "GP Referral and Specialist",
                     "11|442"
                  ],
                  [
                     "Gym Instructor",
                     "11|443"
                  ],
                  [
                     "Gym Manager",
                     "11|444"
                  ],
                  [
                     "Leisure Centre Receptionist",
                     "11|445"
                  ],
                  [
                     "Leisure Manager",
                     "11|446"
                  ],
                  [
                     "NVQ Assessors & Training",
                     "11|447"
                  ],
                  [
                     "Operations Manager",
                     "11|448"
                  ],
                  [
                     "Personal Trainer",
                     "11|449"
                  ],
                  [
                     "Personal Training Course",
                     "11|450"
                  ],
                  [
                     "Pilates Instructor",
                     "11|451"
                  ],
                  [
                     "Self Employed Personal Training",
                     "11|452"
                  ],
                  [
                     "Senior Management (Fitness)",
                     "11|453"
                  ],
                  [
                     "Studio Coordinator",
                     "11|454"
                  ],
                  [
                     "Trainee Manager Duty Manager",
                     "11|455"
                  ],
                  [
                     "Yoga Instructor",
                     "11|456"
                  ]
               ]
            },
            {
               "Label" : "Hotel jobs",
               "Options" : [
                  [
                     "Assistant Hotel Manager",
                     "11|458"
                  ],
                  [
                     "Chef and Cook (Hotel)",
                     "11|513169"
                  ],
                  [
                     "Golf Club Management",
                     "11|459"
                  ],
                  [
                     "Golf Greenkeeper",
                     "11|460"
                  ],
                  [
                     "Grounds Person",
                     "11|461"
                  ],
                  [
                     "Head Housekeeper",
                     "11|462"
                  ],
                  [
                     "Hotel Area Manager",
                     "11|463"
                  ],
                  [
                     "Hotel Deputy Manager",
                     "11|464"
                  ],
                  [
                     "Hotel General Manager",
                     "11|465"
                  ],
                  [
                     "Hotel Management",
                     "11|466"
                  ],
                  [
                     "Hotel Porter",
                     "11|467"
                  ],
                  [
                     "Hotel Receptionist",
                     "11|468"
                  ],
                  [
                     "Housekeeper",
                     "11|469"
                  ],
                  [
                     "Housekeeping & Maintenance",
                     "11|470"
                  ],
                  [
                     "Inn Manager",
                     "11|471"
                  ],
                  [
                     "Maintenance Manager",
                     "11|472"
                  ],
                  [
                     "Maintenance Person",
                     "11|473"
                  ],
                  [
                     "Night Manager",
                     "11|474"
                  ],
                  [
                     "Reservations Manager",
                     "11|475"
                  ],
                  [
                     "Revenue Manager",
                     "11|476"
                  ],
                  [
                     "Room Attendant",
                     "11|477"
                  ],
                  [
                     "Senior Management (Hotel)",
                     "11|478"
                  ],
                  [
                     "Spa Roles",
                     "11|513171"
                  ]
               ]
            },
            {
               "Label" : "Restaurant, Catering & Hospitality jobs",
               "Options" : [
                  [
                     "Assistant Conference and Banqueting Manager",
                     "11|480"
                  ],
                  [
                     "Assistant General Manager",
                     "11|481"
                  ],
                  [
                     "Assistant Restaurant Manager",
                     "11|482"
                  ],
                  [
                     "Banqueting Manager",
                     "11|483"
                  ],
                  [
                     "Barista",
                     "11|484"
                  ],
                  [
                     "Branded Restaurant Manager",
                     "11|485"
                  ],
                  [
                     "Breakfast Staff",
                     "11|486"
                  ],
                  [
                     "Catering and Banqueting Manager",
                     "11|487"
                  ],
                  [
                     "Catering Assistant",
                     "11|488"
                  ],
                  [
                     "Catering Supervisor",
                     "11|489"
                  ],
                  [
                     "Chef and Cook (Restaurant & Catering)",
                     "11|513170"
                  ],
                  [
                     "Chef de Rang",
                     "11|490"
                  ],
                  [
                     "Conference and Banqueting Porter",
                     "11|491"
                  ],
                  [
                     "Conference and Banqueting Supervisor",
                     "11|492"
                  ],
                  [
                     "Conference Manager",
                     "11|493"
                  ],
                  [
                     "Counter Staff",
                     "11|494"
                  ],
                  [
                     "F&B Manager",
                     "11|495"
                  ],
                  [
                     "Food and Beverage Assistant",
                     "11|496"
                  ],
                  [
                     "Food Service Assistant",
                     "11|497"
                  ],
                  [
                     "General Manager",
                     "11|498"
                  ],
                  [
                     "Head Waiter",
                     "11|499"
                  ],
                  [
                     "Host/Hostess",
                     "11|513165"
                  ],
                  [
                     "Kitchen Manager",
                     "11|500"
                  ],
                  [
                     "Restaurant & Catering Management",
                     "11|501"
                  ],
                  [
                     "Restaurant and Bars Manager",
                     "11|502"
                  ],
                  [
                     "Restaurant Area Manager",
                     "11|503"
                  ],
                  [
                     "Restaurant Breakfast Staff",
                     "11|504"
                  ],
                  [
                     "Restaurant Deputy Manager",
                     "11|505"
                  ],
                  [
                     "Restaurant General Manager",
                     "11|506"
                  ],
                  [
                     "Restaurant Manager",
                     "11|507"
                  ],
                  [
                     "Restaurant Supervisor",
                     "11|508"
                  ],
                  [
                     "Senior Management (Restaurant)",
                     "11|509"
                  ],
                  [
                     "Supervisor",
                     "11|510"
                  ],
                  [
                     "Team Leader",
                     "11|511"
                  ],
                  [
                     "Waiter / Waitress",
                     "11|512"
                  ],
                  [
                     "Waiting Staff",
                     "11|513"
                  ],
                  [
                     "Wine Waiter",
                     "11|514"
                  ]
               ]
            },
            {
               "Label" : "Retail jobs",
               "Options" : [
                  [
                     "Account Manager (Retail)",
                     "11|513013"
                  ],
                  [
                     "Area Sales Manager (Retail)",
                     "11|513016"
                  ],
                  [
                     "Assistant Store Manager",
                     "11|513019"
                  ],
                  [
                     "Branch Manager (Retail)",
                     "11|513022"
                  ],
                  [
                     "Concession Manager",
                     "11|513025"
                  ],
                  [
                     "Manager Retail",
                     "11|513028"
                  ],
                  [
                     "Merchandising",
                     "11|516"
                  ],
                  [
                     "Mystery Shopper",
                     "11|513031"
                  ],
                  [
                     "Personal Shopper",
                     "11|517"
                  ],
                  [
                     "Retail Advisor",
                     "11|513034"
                  ],
                  [
                     "Retail Assistant",
                     "11|513037"
                  ],
                  [
                     "Retail Assistant Manager",
                     "11|518"
                  ],
                  [
                     "Retail Customer Service Assistant",
                     "11|513040"
                  ],
                  [
                     "Retail Manager",
                     "11|519"
                  ],
                  [
                     "Retail Sales",
                     "11|520"
                  ],
                  [
                     "Retail Sales Advisor",
                     "11|513043"
                  ],
                  [
                     "Retail Sales Assistant",
                     "11|513046"
                  ],
                  [
                     "Retail Sales Consultant",
                     "11|513049"
                  ],
                  [
                     "Retail Sales Executive",
                     "11|513052"
                  ],
                  [
                     "Retail Supervisor",
                     "11|513055"
                  ],
                  [
                     "Retail Trainee Manager",
                     "11|521"
                  ],
                  [
                     "Retailer",
                     "11|513058"
                  ],
                  [
                     "Senior Management (Retail)",
                     "11|522"
                  ],
                  [
                     "Store Manager",
                     "11|513061"
                  ]
               ]
            },
            {
               "Label" : "Sales & Marketing jobs",
               "Options" : [
                  [
                     "Area sales Manager",
                     "11|524"
                  ],
                  [
                     "Brand Ambassador",
                     "11|525"
                  ],
                  [
                     "Brand Manager",
                     "11|526"
                  ],
                  [
                     "Field sales",
                     "11|527"
                  ],
                  [
                     "Golf Club Membership Sales",
                     "11|528"
                  ],
                  [
                     "Marketing",
                     "11|529"
                  ],
                  [
                     "Marketing Assistant",
                     "11|530"
                  ],
                  [
                     "Marketing Manager",
                     "11|531"
                  ],
                  [
                     "Membership Advisor",
                     "11|532"
                  ],
                  [
                     "Membership Manager",
                     "11|533"
                  ],
                  [
                     "Membership Sales",
                     "11|534"
                  ],
                  [
                     "Promotions",
                     "11|535"
                  ],
                  [
                     "Promotions Manager",
                     "11|536"
                  ],
                  [
                     "Recruitment Consultant",
                     "11|537"
                  ],
                  [
                     "Regional Manager",
                     "11|538"
                  ],
                  [
                     "Retention Manager",
                     "11|539"
                  ],
                  [
                     "Sales",
                     "11|540"
                  ],
                  [
                     "Sales and Marketing Manager",
                     "11|541"
                  ],
                  [
                     "Sales Assistant",
                     "11|542"
                  ],
                  [
                     "Sales Director",
                     "11|543"
                  ],
                  [
                     "Sales Manager",
                     "11|544"
                  ],
                  [
                     "Senior Management (Sales)",
                     "11|545"
                  ]
               ]
            },
            {
               "Label" : "Ski & Seasonal jobs",
               "Options" : [
                  [
                     "Chalet Host",
                     "11|547"
                  ],
                  [
                     "Reservations Agent",
                     "11|548"
                  ],
                  [
                     "Senior Management (Ski)",
                     "11|549"
                  ],
                  [
                     "Ships Casino",
                     "11|550"
                  ],
                  [
                     "Ships Purser",
                     "11|551"
                  ],
                  [
                     "Ships Retail Sales Assistants",
                     "11|552"
                  ],
                  [
                     "Ski Guide",
                     "11|553"
                  ],
                  [
                     "Ski Instructor",
                     "11|554"
                  ],
                  [
                     "Ticketing",
                     "11|555"
                  ]
               ]
            },
            {
               "Label" : "Spa, Massage & Beauty jobs",
               "Options" : [
                  [
                     "Account Manager",
                     "11|557"
                  ],
                  [
                     "Assistant Beauty Manager",
                     "11|558"
                  ],
                  [
                     "Assistant Spa Manager",
                     "11|559"
                  ],
                  [
                     "Beauty Consultant",
                     "11|560"
                  ],
                  [
                     "Beauty Management",
                     "11|561"
                  ],
                  [
                     "Beauty Sales",
                     "11|562"
                  ],
                  [
                     "Beauty Therapist",
                     "11|563"
                  ],
                  [
                     "Botox Technician",
                     "11|564"
                  ],
                  [
                     "Complimentary Therapist",
                     "11|565"
                  ],
                  [
                     "Eyelash Artist",
                     "11|566"
                  ],
                  [
                     "Hair jobs",
                     "11|567"
                  ],
                  [
                     "Hair Stylist",
                     "11|568"
                  ],
                  [
                     "Massage Therapist",
                     "11|569"
                  ],
                  [
                     "Masseuse",
                     "11|570"
                  ],
                  [
                     "Nail Technician",
                     "11|571"
                  ],
                  [
                     "Perfumist",
                     "11|572"
                  ],
                  [
                     "Salon Manager",
                     "11|573"
                  ],
                  [
                     "Senior Management (Spa)",
                     "11|574"
                  ],
                  [
                     "Senior Stylist",
                     "11|575"
                  ],
                  [
                     "Skincare Specialist",
                     "11|576"
                  ],
                  [
                     "Spa Assistant",
                     "11|577"
                  ],
                  [
                     "Spa Director",
                     "11|578"
                  ],
                  [
                     "Spa Management",
                     "11|579"
                  ],
                  [
                     "Spa Receptionist",
                     "11|580"
                  ],
                  [
                     "Spa Therapist",
                     "11|581"
                  ],
                  [
                     "Treatments Manager",
                     "11|582"
                  ]
               ]
            },
            {
               "Label" : "Sports jobs",
               "Options" : [
                  [
                     "Aquacise Coach",
                     "11|584"
                  ],
                  [
                     "Canoeing Instructor",
                     "11|585"
                  ],
                  [
                     "Climbing Instructor",
                     "11|586"
                  ],
                  [
                     "Deep Tissue and Sports Massage Therapists",
                     "11|587"
                  ],
                  [
                     "Diving Instructor",
                     "11|588"
                  ],
                  [
                     "Football Centre Manager",
                     "11|589"
                  ],
                  [
                     "Football Coach",
                     "11|590"
                  ],
                  [
                     "Golf Coach Professional",
                     "11|591"
                  ],
                  [
                     "Golf Co-ordinator",
                     "11|592"
                  ],
                  [
                     "Leisure Assistant",
                     "11|593"
                  ],
                  [
                     "Lifeguard",
                     "11|513166"
                  ],
                  [
                     "Management",
                     "11|594"
                  ],
                  [
                     "PE Teacher",
                     "11|595"
                  ],
                  [
                     "Physiotherapist",
                     "11|596"
                  ],
                  [
                     "Pool Lifeguard",
                     "11|597"
                  ],
                  [
                     "Recreation Assistant",
                     "11|598"
                  ],
                  [
                     "Sailing Instructor",
                     "11|599"
                  ],
                  [
                     "Senior Management (Sports)",
                     "11|600"
                  ],
                  [
                     "Sports Coach",
                     "11|601"
                  ],
                  [
                     "Sports Coaching Business",
                     "11|602"
                  ],
                  [
                     "Sports Development Officer",
                     "11|603"
                  ],
                  [
                     "Squash Coach",
                     "11|604"
                  ],
                  [
                     "Swimming Instructor",
                     "11|605"
                  ],
                  [
                     "Swimming Teacher",
                     "11|606"
                  ],
                  [
                     "Tennis Coach",
                     "11|607"
                  ],
                  [
                     "Trampoline Instructor jobs",
                     "11|608"
                  ],
                  [
                     "Wake Board Instructor",
                     "11|609"
                  ],
                  [
                     "Waterski Instructor",
                     "11|610"
                  ],
                  [
                     "Windsurfing Instructor",
                     "11|611"
                  ]
               ]
            },
            {
               "Label" : "Temp, Student & Summer jobs",
               "Options" : [
                  [
                     "Administrator (temp)",
                     "11|630"
                  ],
                  [
                     "Bar Staff (temp)",
                     "11|631"
                  ],
                  [
                     "Barista (temp)",
                     "11|632"
                  ],
                  [
                     "Chef de Partie (temp)",
                     "11|633"
                  ],
                  [
                     "Club manager (temp)",
                     "11|634"
                  ],
                  [
                     "Cocktail Barman (Temp)",
                     "11|635"
                  ],
                  [
                     "Events Staff (temp)",
                     "11|636"
                  ],
                  [
                     "Fitness Instructor (temp)",
                     "11|637"
                  ],
                  [
                     "Fitness manager (temp)",
                     "11|638"
                  ],
                  [
                     "Group Exercise Instructor (temp)",
                     "11|639"
                  ],
                  [
                     "Kitchen Porter (temp)",
                     "11|640"
                  ],
                  [
                     "Leafleter (temp)",
                     "11|641"
                  ],
                  [
                     "Lifeguards (temp)",
                     "11|642"
                  ],
                  [
                     "Management duty (temp)",
                     "11|643"
                  ],
                  [
                     "Membership Sales Consultant (temp)",
                     "11|644"
                  ],
                  [
                     "Operations manager (temp)",
                     "11|645"
                  ],
                  [
                     "Promotional Staff (temp)",
                     "11|646"
                  ],
                  [
                     "Receptionist (temp)",
                     "11|647"
                  ],
                  [
                     "Sales Assistant (temp)",
                     "11|648"
                  ],
                  [
                     "Sales manager (temp)",
                     "11|649"
                  ],
                  [
                     "Sports development manager (temp)",
                     "11|650"
                  ],
                  [
                     "Summer jobs",
                     "11|651"
                  ],
                  [
                     "Swim Teacher (temp)",
                     "11|652"
                  ],
                  [
                     "Waiting Staff (temp)",
                     "11|653"
                  ]
               ]
            },
            {
               "Label" : "Travel & Culture",
               "Options" : [
                  [
                     "Administration & Support",
                     "11|613"
                  ],
                  [
                     "Arts Assistant",
                     "11|614"
                  ],
                  [
                     "Business Development Manager",
                     "11|513064"
                  ],
                  [
                     "Business Travel Consultant",
                     "11|615"
                  ],
                  [
                     "Cabin Crew",
                     "11|616"
                  ],
                  [
                     "Call Centre",
                     "11|617"
                  ],
                  [
                     "Camps and Activity Coordinators",
                     "11|618"
                  ],
                  [
                     "Camps and Activity Manager",
                     "11|619"
                  ],
                  [
                     "Conference Co-ordinator",
                     "11|620"
                  ],
                  [
                     "Cruise Ship",
                     "11|621"
                  ],
                  [
                     "Customer Service Advisor",
                     "11|513067"
                  ],
                  [
                     "Customer Service Representative",
                     "11|513070"
                  ],
                  [
                     "Graduate (Travel)",
                     "11|513073"
                  ],
                  [
                     "Holiday Rep",
                     "11|622"
                  ],
                  [
                     "Librarian",
                     "11|623"
                  ],
                  [
                     "Museum Assistant",
                     "11|624"
                  ],
                  [
                     "Overseas",
                     "11|513118"
                  ],
                  [
                     "Reservations Consultant",
                     "11|513076"
                  ],
                  [
                     "Sales and Customer Service Associate",
                     "11|513079"
                  ],
                  [
                     "Sales Assistant (Travel)",
                     "11|513082"
                  ],
                  [
                     "Sales Consultant",
                     "11|513085"
                  ],
                  [
                     "Sales Executive",
                     "11|513088"
                  ],
                  [
                     "Sales Manager (Travel)",
                     "11|513091"
                  ],
                  [
                     "Sales Team Leader",
                     "11|513094"
                  ],
                  [
                     "Senior Business Travel Consultant",
                     "11|513097"
                  ],
                  [
                     "Senior Management (Travel)",
                     "11|625"
                  ],
                  [
                     "Trainee Sales Assistant",
                     "11|513100"
                  ],
                  [
                     "Travel Account Management",
                     "11|626"
                  ],
                  [
                     "Travel Administrator",
                     "11|513103"
                  ],
                  [
                     "Travel Advisor",
                     "11|513106"
                  ],
                  [
                     "Travel Agent",
                     "11|627"
                  ],
                  [
                     "Travel Consultant",
                     "11|628"
                  ],
                  [
                     "Travel Executive",
                     "11|513109"
                  ],
                  [
                     "Travel Manager",
                     "11|513112"
                  ],
                  [
                     "Travel Specialist",
                     "11|513115"
                  ]
               ]
            }
         ]
      },
      "12" : {
         "Label" : "Qualifications",
         "Type" : "MultiList",
         "Values" : [
            [
               "NVQ / SVQ 1",
               "12|654"
            ],
            [
               "NVQ / SVQ 2",
               "12|655"
            ],
            [
               "NVQ / SVQ 3",
               "12|656"
            ],
            [
               "NVQ / SVQ 4",
               "12|657"
            ],
            [
               "NVQ / SVQ 5",
               "12|658"
            ],
            [
               "Intermediate Food Hygiene Certificate",
               "12|659"
            ],
            [
               "Basic cookery",
               "12|660"
            ],
            [
               "Advanced cookery skills",
               "12|661"
            ],
            [
               "NPLQ",
               "12|662"
            ],
            [
               "BTEC",
               "12|663"
            ],
            [
               "OCR National",
               "12|664"
            ],
            [
               "Apprenticeship",
               "12|665"
            ],
            [
               "Advanced apprenticeship",
               "12|666"
            ],
            [
               "Higher apprenticeship",
               "12|667"
            ],
            [
               "HND / HNC",
               "12|668"
            ],
            [
               "GCSE's/GNVQ",
               "12|669"
            ],
            [
               "A-Levels",
               "12|670"
            ],
            [
               "Diploma",
               "12|671"
            ],
            [
               "Foundation degree",
               "12|672"
            ],
            [
               "University Degree",
               "12|673"
            ],
            [
               "Masters Degree",
               "12|674"
            ],
            [
               "PhD",
               "12|675"
            ],
            [
               "None",
               "12|513011"
            ]
         ]
      },
      "14" : {
         "Label" : "Duration in current role",
         "Type" : "MultiList",
         "Values" : [
            [
               "Less than 1 year",
               "14|676"
            ],
            [
               "1 year",
               "14|677"
            ],
            [
               "2 years",
               "14|678"
            ],
            [
               "3 years",
               "14|679"
            ],
            [
               "4 years",
               "14|680"
            ],
            [
               "5 years",
               "14|681"
            ],
            [
               "More than 5 years",
               "14|682"
            ]
         ]
      },
      "16" : {
         "Label" : "Current salary",
         "Type" : "MultiList",
         "Values" : [
            [
               "Unspecified",
               "16|513124"
            ],
            [
               "Up to \u00a310,000",
               "16|683"
            ],
            [
               "\u00a310,000 - \u00a314,999 (Up to \u00a37 hr)",
               "16|684"
            ],
            [
               "\u00a315,000 - \u00a319,999 (Up to \u00a310 hr)",
               "16|685"
            ],
            [
               "\u00a320,000 - \u00a324,999 (Up to \u00a312 hr)",
               "16|686"
            ],
            [
               "\u00a325,000 - \u00a329,999 (Up to \u00a314 hr)",
               "16|687"
            ],
            [
               "\u00a330,000 - \u00a339,999 (Up to \u00a319 hr)",
               "16|688"
            ],
            [
               "\u00a340,000 - \u00a349,999 (Up to \u00a324 hr)",
               "16|689"
            ],
            [
               "\u00a350,000 - \u00a359,999 (Up to \u00a330 hr)",
               "16|690"
            ],
            [
               "\u00a360,000 - \u00a369,999 (Up to \u00a334 hr)",
               "16|691"
            ],
            [
               "\u00a370,000 - \u00a399,999 (Up to \u00a348 hr)",
               "16|692"
            ],
            [
               "\u00a3100,000 or more",
               "16|693"
            ]
         ]
      },
      "18" : {
         "Label" : "Preferred salary",
         "Type" : "MultiList",
         "Values" : [
            [
               "Unspecified",
               "18|513124"
            ],
            [
               "Up to \u00a310,000",
               "18|683"
            ],
            [
               "\u00a310,000 - \u00a314,999 (Up to \u00a37 hr)",
               "18|684"
            ],
            [
               "\u00a315,000 - \u00a319,999 (Up to \u00a310 hr)",
               "18|685"
            ],
            [
               "\u00a320,000 - \u00a324,999 (Up to \u00a312 hr)",
               "18|686"
            ],
            [
               "\u00a325,000 - \u00a329,999 (Up to \u00a314 hr)",
               "18|687"
            ],
            [
               "\u00a330,000 - \u00a339,999 (Up to \u00a319 hr)",
               "18|688"
            ],
            [
               "\u00a340,000 - \u00a349,999 (Up to \u00a324 hr)",
               "18|689"
            ],
            [
               "\u00a350,000 - \u00a359,999 (Up to \u00a330 hr)",
               "18|690"
            ],
            [
               "\u00a360,000 - \u00a369,999 (Up to \u00a334 hr)",
               "18|691"
            ],
            [
               "\u00a370,000 - \u00a399,999 (Up to \u00a348 hr)",
               "18|692"
            ],
            [
               "\u00a3100,000 or more",
               "18|693"
            ]
         ]
      },
      "19" : {
         "Label" : "Preferred Job Type",
         "Type" : "groupedMultiList",
         "Values" : [
            {
               "Label" : "Bar & Pub jobs",
               "Options" : [
                  [
                     "Area Manager",
                     "19|337"
                  ],
                  [
                     "Assistant Bar Manager",
                     "19|338"
                  ],
                  [
                     "Assistant Pub Manager",
                     "19|339"
                  ],
                  [
                     "Assistant Restaurant & Bars Manager",
                     "19|340"
                  ],
                  [
                     "Bar and Floor Staff",
                     "19|341"
                  ],
                  [
                     "Bar Manager",
                     "19|342"
                  ],
                  [
                     "Bar Regional Manager",
                     "19|343"
                  ],
                  [
                     "Bar Staff",
                     "19|344"
                  ],
                  [
                     "Bar Staff personal license holder",
                     "19|345"
                  ],
                  [
                     "Bar Supervisor",
                     "19|346"
                  ],
                  [
                     "Bartender",
                     "19|347"
                  ],
                  [
                     "Cellar Manager",
                     "19|348"
                  ],
                  [
                     "Cellar Person",
                     "19|349"
                  ],
                  [
                     "Chef and Cook (Bar & Pub)",
                     "19|513167"
                  ],
                  [
                     "Cocktail Bar jobs",
                     "19|350"
                  ],
                  [
                     "Cocktail Bar Manager",
                     "19|351"
                  ],
                  [
                     "Conference and Banqueting Manager",
                     "19|352"
                  ],
                  [
                     "Destination Pub Manager",
                     "19|353"
                  ],
                  [
                     "Floor Supervisor",
                     "19|354"
                  ],
                  [
                     "Gastro Pub Manager",
                     "19|355"
                  ],
                  [
                     "High Street Manager",
                     "19|356"
                  ],
                  [
                     "Host",
                     "19|357"
                  ],
                  [
                     "Hotel Bar Manager",
                     "19|358"
                  ],
                  [
                     "Late Licence and Nightclub Management",
                     "19|359"
                  ],
                  [
                     "Late License Bar Manager",
                     "19|360"
                  ],
                  [
                     "Late License Manager",
                     "19|361"
                  ],
                  [
                     "Mixologist",
                     "19|362"
                  ],
                  [
                     "Music Venue Manager",
                     "19|363"
                  ],
                  [
                     "Night Club Manager",
                     "19|364"
                  ],
                  [
                     "Operations Director",
                     "19|365"
                  ],
                  [
                     "Pub Area Manager",
                     "19|366"
                  ],
                  [
                     "Pub General Manager",
                     "19|367"
                  ],
                  [
                     "Pub Manager",
                     "19|368"
                  ],
                  [
                     "Pub Tenancy",
                     "19|369"
                  ],
                  [
                     "Senior Bar staff",
                     "19|370"
                  ],
                  [
                     "Senior Management (Bar & Pub)",
                     "19|371"
                  ],
                  [
                     "Shift Manager",
                     "19|372"
                  ],
                  [
                     "Sommelier",
                     "19|373"
                  ],
                  [
                     "Style Bar Manager",
                     "19|374"
                  ]
               ]
            },
            {
               "Label" : "Chef jobs",
               "Options" : [
                  [
                     "Area Head Chef",
                     "19|376"
                  ],
                  [
                     "Baker",
                     "19|377"
                  ],
                  [
                     "Breakfast Chef",
                     "19|378"
                  ],
                  [
                     "Chef",
                     "19|379"
                  ],
                  [
                     "Chef de Partie",
                     "19|380"
                  ],
                  [
                     "Chef Manager",
                     "19|381"
                  ],
                  [
                     "Commis Chef",
                     "19|382"
                  ],
                  [
                     "Cook",
                     "19|383"
                  ],
                  [
                     "Demi Chef De Partie",
                     "19|384"
                  ],
                  [
                     "Development Chef",
                     "19|385"
                  ],
                  [
                     "Executive Chef",
                     "19|386"
                  ],
                  [
                     "Head Chef",
                     "19|387"
                  ],
                  [
                     "Junior Sous Chef",
                     "19|388"
                  ],
                  [
                     "Kitchen Porter",
                     "19|389"
                  ],
                  [
                     "Kitchen Staff",
                     "19|390"
                  ],
                  [
                     "Pastry Chef",
                     "19|391"
                  ],
                  [
                     "Pizza Chef",
                     "19|392"
                  ],
                  [
                     "Pot Washer",
                     "19|393"
                  ],
                  [
                     "Prep Chef",
                     "19|394"
                  ],
                  [
                     "Private Chef",
                     "19|395"
                  ],
                  [
                     "Senior Management (Chef)",
                     "19|396"
                  ],
                  [
                     "Sous Chef",
                     "19|397"
                  ],
                  [
                     "Sushi Chef",
                     "19|398"
                  ],
                  [
                     "Trainee Chef",
                     "19|399"
                  ]
               ]
            },
            {
               "Label" : "Childcare jobs",
               "Options" : [
                  [
                     "Creche Assistant",
                     "19|401"
                  ],
                  [
                     "Creche Manager",
                     "19|402"
                  ],
                  [
                     "Deputy Creche Supervisor",
                     "19|403"
                  ],
                  [
                     "Kids Activity Coordinator",
                     "19|404"
                  ],
                  [
                     "Kids and Childcare Franchise",
                     "19|405"
                  ],
                  [
                     "Nursery Nurse",
                     "19|406"
                  ],
                  [
                     "Room Supervisors",
                     "19|407"
                  ],
                  [
                     "Senior Management (Childcare)",
                     "19|408"
                  ],
                  [
                     "Trainee Nursery Nurse",
                     "19|409"
                  ]
               ]
            },
            {
               "Label" : "Commercial Leisure, Attractions & Entertainment jobs",
               "Options" : [
                  [
                     "Casino & Gaming",
                     "19|513156"
                  ],
                  [
                     "Centre Manager",
                     "19|513126"
                  ],
                  [
                     "Chef and Cook (CLAE)",
                     "19|513168"
                  ],
                  [
                     "Duty Manager",
                     "19|513138"
                  ],
                  [
                     "Food & Beverage Manager",
                     "19|513144"
                  ],
                  [
                     "Food & Beverage Staff",
                     "19|513150"
                  ],
                  [
                     "Front of House",
                     "19|513147"
                  ],
                  [
                     "General Manager (CLAE)",
                     "19|513129"
                  ],
                  [
                     "Maintenance Manager (CLAE)",
                     "19|513141"
                  ],
                  [
                     "Operations Manager (CLAE)",
                     "19|513132"
                  ],
                  [
                     "Sales Manager (CLAE)",
                     "19|513135"
                  ],
                  [
                     "Team Members",
                     "19|513153"
                  ]
               ]
            },
            {
               "Label" : "Financial & Support jobs",
               "Options" : [
                  [
                     "Accountant",
                     "19|411"
                  ],
                  [
                     "Accounts Assistant",
                     "19|412"
                  ],
                  [
                     "Administrator",
                     "19|413"
                  ],
                  [
                     "Assistant Manager",
                     "19|414"
                  ],
                  [
                     "Auditor",
                     "19|415"
                  ],
                  [
                     "Cloakroom Attendant",
                     "19|416"
                  ],
                  [
                     "Credit Controller",
                     "19|417"
                  ],
                  [
                     "Customer Service",
                     "19|418"
                  ],
                  [
                     "Door Manager",
                     "19|419"
                  ],
                  [
                     "Finance Manager",
                     "19|420"
                  ],
                  [
                     "Financial Controller",
                     "19|421"
                  ],
                  [
                     "Head Office Support Staff",
                     "19|422"
                  ],
                  [
                     "HR Administrator",
                     "19|423"
                  ],
                  [
                     "Membership Administrator",
                     "19|424"
                  ],
                  [
                     "Payroll",
                     "19|425"
                  ],
                  [
                     "Personnel Manager",
                     "19|426"
                  ],
                  [
                     "Senior Management (Admin)",
                     "19|427"
                  ],
                  [
                     "Site Administrator",
                     "19|428"
                  ],
                  [
                     "Switchboard Operator",
                     "19|429"
                  ]
               ]
            },
            {
               "Label" : "Fitness jobs",
               "Options" : [
                  [
                     "Aerobics Instructor",
                     "19|431"
                  ],
                  [
                     "Area Manager (Fitness)",
                     "19|432"
                  ],
                  [
                     "Assistant Manager (Fitness)",
                     "19|433"
                  ],
                  [
                     "Contract Manager",
                     "19|434"
                  ],
                  [
                     "Deputy Manager",
                     "19|435"
                  ],
                  [
                     "Fitness Franchise",
                     "19|436"
                  ],
                  [
                     "Fitness Instructor",
                     "19|437"
                  ],
                  [
                     "Fitness Management",
                     "19|438"
                  ],
                  [
                     "Fitness Support Assistant",
                     "19|439"
                  ],
                  [
                     "Fitness Team Leader",
                     "19|440"
                  ],
                  [
                     "General Manager (Fitness)",
                     "19|441"
                  ],
                  [
                     "GP Referral and Specialist",
                     "19|442"
                  ],
                  [
                     "Gym Instructor",
                     "19|443"
                  ],
                  [
                     "Gym Manager",
                     "19|444"
                  ],
                  [
                     "Leisure Centre Receptionist",
                     "19|445"
                  ],
                  [
                     "Leisure Manager",
                     "19|446"
                  ],
                  [
                     "NVQ Assessors & Training",
                     "19|447"
                  ],
                  [
                     "Operations Manager",
                     "19|448"
                  ],
                  [
                     "Personal Trainer",
                     "19|449"
                  ],
                  [
                     "Personal Training Course",
                     "19|450"
                  ],
                  [
                     "Pilates Instructor",
                     "19|451"
                  ],
                  [
                     "Self Employed Personal Training",
                     "19|452"
                  ],
                  [
                     "Senior Management (Fitness)",
                     "19|453"
                  ],
                  [
                     "Studio Coordinator",
                     "19|454"
                  ],
                  [
                     "Trainee Manager Duty Manager",
                     "19|455"
                  ],
                  [
                     "Yoga Instructor",
                     "19|456"
                  ]
               ]
            },
            {
               "Label" : "Hotel jobs",
               "Options" : [
                  [
                     "Assistant Hotel Manager",
                     "19|458"
                  ],
                  [
                     "Chef and Cook (Hotel)",
                     "19|513169"
                  ],
                  [
                     "Golf Club Management",
                     "19|459"
                  ],
                  [
                     "Golf Greenkeeper",
                     "19|460"
                  ],
                  [
                     "Grounds Person",
                     "19|461"
                  ],
                  [
                     "Head Housekeeper",
                     "19|462"
                  ],
                  [
                     "Hotel Area Manager",
                     "19|463"
                  ],
                  [
                     "Hotel Deputy Manager",
                     "19|464"
                  ],
                  [
                     "Hotel General Manager",
                     "19|465"
                  ],
                  [
                     "Hotel Management",
                     "19|466"
                  ],
                  [
                     "Hotel Porter",
                     "19|467"
                  ],
                  [
                     "Hotel Receptionist",
                     "19|468"
                  ],
                  [
                     "Housekeeper",
                     "19|469"
                  ],
                  [
                     "Housekeeping & Maintenance",
                     "19|470"
                  ],
                  [
                     "Inn Manager",
                     "19|471"
                  ],
                  [
                     "Maintenance Manager",
                     "19|472"
                  ],
                  [
                     "Maintenance Person",
                     "19|473"
                  ],
                  [
                     "Night Manager",
                     "19|474"
                  ],
                  [
                     "Reservations Manager",
                     "19|475"
                  ],
                  [
                     "Revenue Manager",
                     "19|476"
                  ],
                  [
                     "Room Attendant",
                     "19|477"
                  ],
                  [
                     "Senior Management (Hotel)",
                     "19|478"
                  ],
                  [
                     "Spa Roles",
                     "19|513171"
                  ]
               ]
            },
            {
               "Label" : "Restaurant, Catering & Hospitality jobs",
               "Options" : [
                  [
                     "Assistant Conference and Banqueting Manager",
                     "19|480"
                  ],
                  [
                     "Assistant General Manager",
                     "19|481"
                  ],
                  [
                     "Assistant Restaurant Manager",
                     "19|482"
                  ],
                  [
                     "Banqueting Manager",
                     "19|483"
                  ],
                  [
                     "Barista",
                     "19|484"
                  ],
                  [
                     "Branded Restaurant Manager",
                     "19|485"
                  ],
                  [
                     "Breakfast Staff",
                     "19|486"
                  ],
                  [
                     "Catering and Banqueting Manager",
                     "19|487"
                  ],
                  [
                     "Catering Assistant",
                     "19|488"
                  ],
                  [
                     "Catering Supervisor",
                     "19|489"
                  ],
                  [
                     "Chef and Cook (Restaurant & Catering)",
                     "19|513170"
                  ],
                  [
                     "Chef de Rang",
                     "19|490"
                  ],
                  [
                     "Conference and Banqueting Porter",
                     "19|491"
                  ],
                  [
                     "Conference and Banqueting Supervisor",
                     "19|492"
                  ],
                  [
                     "Conference Manager",
                     "19|493"
                  ],
                  [
                     "Counter Staff",
                     "19|494"
                  ],
                  [
                     "F&B Manager",
                     "19|495"
                  ],
                  [
                     "Food and Beverage Assistant",
                     "19|496"
                  ],
                  [
                     "Food Service Assistant",
                     "19|497"
                  ],
                  [
                     "General Manager",
                     "19|498"
                  ],
                  [
                     "Head Waiter",
                     "19|499"
                  ],
                  [
                     "Host/Hostess",
                     "19|513165"
                  ],
                  [
                     "Kitchen Manager",
                     "19|500"
                  ],
                  [
                     "Restaurant & Catering Management",
                     "19|501"
                  ],
                  [
                     "Restaurant and Bars Manager",
                     "19|502"
                  ],
                  [
                     "Restaurant Area Manager",
                     "19|503"
                  ],
                  [
                     "Restaurant Breakfast Staff",
                     "19|504"
                  ],
                  [
                     "Restaurant Deputy Manager",
                     "19|505"
                  ],
                  [
                     "Restaurant General Manager",
                     "19|506"
                  ],
                  [
                     "Restaurant Manager",
                     "19|507"
                  ],
                  [
                     "Restaurant Supervisor",
                     "19|508"
                  ],
                  [
                     "Senior Management (Restaurant)",
                     "19|509"
                  ],
                  [
                     "Supervisor",
                     "19|510"
                  ],
                  [
                     "Team Leader",
                     "19|511"
                  ],
                  [
                     "Waiter / Waitress",
                     "19|512"
                  ],
                  [
                     "Waiting Staff",
                     "19|513"
                  ],
                  [
                     "Wine Waiter",
                     "19|514"
                  ]
               ]
            },
            {
               "Label" : "Retail jobs",
               "Options" : [
                  [
                     "Account Manager (Retail)",
                     "19|513013"
                  ],
                  [
                     "Area Sales Manager (Retail)",
                     "19|513016"
                  ],
                  [
                     "Assistant Store Manager",
                     "19|513019"
                  ],
                  [
                     "Branch Manager (Retail)",
                     "19|513022"
                  ],
                  [
                     "Concession Manager",
                     "19|513025"
                  ],
                  [
                     "Manager Retail",
                     "19|513028"
                  ],
                  [
                     "Merchandising",
                     "19|516"
                  ],
                  [
                     "Mystery Shopper",
                     "19|513031"
                  ],
                  [
                     "Personal Shopper",
                     "19|517"
                  ],
                  [
                     "Retail Advisor",
                     "19|513034"
                  ],
                  [
                     "Retail Assistant",
                     "19|513037"
                  ],
                  [
                     "Retail Assistant Manager",
                     "19|518"
                  ],
                  [
                     "Retail Customer Service Assistant",
                     "19|513040"
                  ],
                  [
                     "Retail Manager",
                     "19|519"
                  ],
                  [
                     "Retail Sales",
                     "19|520"
                  ],
                  [
                     "Retail Sales Advisor",
                     "19|513043"
                  ],
                  [
                     "Retail Sales Assistant",
                     "19|513046"
                  ],
                  [
                     "Retail Sales Consultant",
                     "19|513049"
                  ],
                  [
                     "Retail Sales Executive",
                     "19|513052"
                  ],
                  [
                     "Retail Supervisor",
                     "19|513055"
                  ],
                  [
                     "Retail Trainee Manager",
                     "19|521"
                  ],
                  [
                     "Retailer",
                     "19|513058"
                  ],
                  [
                     "Senior Management (Retail)",
                     "19|522"
                  ],
                  [
                     "Store Manager",
                     "19|513061"
                  ]
               ]
            },
            {
               "Label" : "Sales & Marketing jobs",
               "Options" : [
                  [
                     "Area sales Manager",
                     "19|524"
                  ],
                  [
                     "Brand Ambassador",
                     "19|525"
                  ],
                  [
                     "Brand Manager",
                     "19|526"
                  ],
                  [
                     "Field sales",
                     "19|527"
                  ],
                  [
                     "Golf Club Membership Sales",
                     "19|528"
                  ],
                  [
                     "Marketing",
                     "19|529"
                  ],
                  [
                     "Marketing Assistant",
                     "19|530"
                  ],
                  [
                     "Marketing Manager",
                     "19|531"
                  ],
                  [
                     "Membership Advisor",
                     "19|532"
                  ],
                  [
                     "Membership Manager",
                     "19|533"
                  ],
                  [
                     "Membership Sales",
                     "19|534"
                  ],
                  [
                     "Promotions",
                     "19|535"
                  ],
                  [
                     "Promotions Manager",
                     "19|536"
                  ],
                  [
                     "Recruitment Consultant",
                     "19|537"
                  ],
                  [
                     "Regional Manager",
                     "19|538"
                  ],
                  [
                     "Retention Manager",
                     "19|539"
                  ],
                  [
                     "Sales",
                     "19|540"
                  ],
                  [
                     "Sales and Marketing Manager",
                     "19|541"
                  ],
                  [
                     "Sales Assistant",
                     "19|542"
                  ],
                  [
                     "Sales Director",
                     "19|543"
                  ],
                  [
                     "Sales Manager",
                     "19|544"
                  ],
                  [
                     "Senior Management (Sales)",
                     "19|545"
                  ]
               ]
            },
            {
               "Label" : "Ski & Seasonal jobs",
               "Options" : [
                  [
                     "Chalet Host",
                     "19|547"
                  ],
                  [
                     "Reservations Agent",
                     "19|548"
                  ],
                  [
                     "Senior Management (Ski)",
                     "19|549"
                  ],
                  [
                     "Ships Casino",
                     "19|550"
                  ],
                  [
                     "Ships Purser",
                     "19|551"
                  ],
                  [
                     "Ships Retail Sales Assistants",
                     "19|552"
                  ],
                  [
                     "Ski Guide",
                     "19|553"
                  ],
                  [
                     "Ski Instructor",
                     "19|554"
                  ],
                  [
                     "Ticketing",
                     "19|555"
                  ]
               ]
            },
            {
               "Label" : "Spa, Massage & Beauty jobs",
               "Options" : [
                  [
                     "Account Manager",
                     "19|557"
                  ],
                  [
                     "Assistant Beauty Manager",
                     "19|558"
                  ],
                  [
                     "Assistant Spa Manager",
                     "19|559"
                  ],
                  [
                     "Beauty Consultant",
                     "19|560"
                  ],
                  [
                     "Beauty Management",
                     "19|561"
                  ],
                  [
                     "Beauty Sales",
                     "19|562"
                  ],
                  [
                     "Beauty Therapist",
                     "19|563"
                  ],
                  [
                     "Botox Technician",
                     "19|564"
                  ],
                  [
                     "Complimentary Therapist",
                     "19|565"
                  ],
                  [
                     "Eyelash Artist",
                     "19|566"
                  ],
                  [
                     "Hair jobs",
                     "19|567"
                  ],
                  [
                     "Hair Stylist",
                     "19|568"
                  ],
                  [
                     "Massage Therapist",
                     "19|569"
                  ],
                  [
                     "Masseuse",
                     "19|570"
                  ],
                  [
                     "Nail Technician",
                     "19|571"
                  ],
                  [
                     "Perfumist",
                     "19|572"
                  ],
                  [
                     "Salon Manager",
                     "19|573"
                  ],
                  [
                     "Senior Management (Spa)",
                     "19|574"
                  ],
                  [
                     "Senior Stylist",
                     "19|575"
                  ],
                  [
                     "Skincare Specialist",
                     "19|576"
                  ],
                  [
                     "Spa Assistant",
                     "19|577"
                  ],
                  [
                     "Spa Director",
                     "19|578"
                  ],
                  [
                     "Spa Management",
                     "19|579"
                  ],
                  [
                     "Spa Receptionist",
                     "19|580"
                  ],
                  [
                     "Spa Therapist",
                     "19|581"
                  ],
                  [
                     "Treatments Manager",
                     "19|582"
                  ]
               ]
            },
            {
               "Label" : "Sports jobs",
               "Options" : [
                  [
                     "Aquacise Coach",
                     "19|584"
                  ],
                  [
                     "Canoeing Instructor",
                     "19|585"
                  ],
                  [
                     "Climbing Instructor",
                     "19|586"
                  ],
                  [
                     "Deep Tissue and Sports Massage Therapists",
                     "19|587"
                  ],
                  [
                     "Diving Instructor",
                     "19|588"
                  ],
                  [
                     "Football Centre Manager",
                     "19|589"
                  ],
                  [
                     "Football Coach",
                     "19|590"
                  ],
                  [
                     "Golf Coach Professional",
                     "19|591"
                  ],
                  [
                     "Golf Co-ordinator",
                     "19|592"
                  ],
                  [
                     "Leisure Assistant",
                     "19|593"
                  ],
                  [
                     "Lifeguard",
                     "19|513166"
                  ],
                  [
                     "Management",
                     "19|594"
                  ],
                  [
                     "PE Teacher",
                     "19|595"
                  ],
                  [
                     "Physiotherapist",
                     "19|596"
                  ],
                  [
                     "Pool Lifeguard",
                     "19|597"
                  ],
                  [
                     "Recreation Assistant",
                     "19|598"
                  ],
                  [
                     "Sailing Instructor",
                     "19|599"
                  ],
                  [
                     "Senior Management (Sports)",
                     "19|600"
                  ],
                  [
                     "Sports Coach",
                     "19|601"
                  ],
                  [
                     "Sports Coaching Business",
                     "19|602"
                  ],
                  [
                     "Sports Development Officer",
                     "19|603"
                  ],
                  [
                     "Squash Coach",
                     "19|604"
                  ],
                  [
                     "Swimming Instructor",
                     "19|605"
                  ],
                  [
                     "Swimming Teacher",
                     "19|606"
                  ],
                  [
                     "Tennis Coach",
                     "19|607"
                  ],
                  [
                     "Trampoline Instructor jobs",
                     "19|608"
                  ],
                  [
                     "Wake Board Instructor",
                     "19|609"
                  ],
                  [
                     "Waterski Instructor",
                     "19|610"
                  ],
                  [
                     "Windsurfing Instructor",
                     "19|611"
                  ]
               ]
            },
            {
               "Label" : "Temp, Student & Summer jobs",
               "Options" : [
                  [
                     "Administrator (temp)",
                     "19|630"
                  ],
                  [
                     "Bar Staff (temp)",
                     "19|631"
                  ],
                  [
                     "Barista (temp)",
                     "19|632"
                  ],
                  [
                     "Chef de Partie (temp)",
                     "19|633"
                  ],
                  [
                     "Club manager (temp)",
                     "19|634"
                  ],
                  [
                     "Cocktail Barman (Temp)",
                     "19|635"
                  ],
                  [
                     "Events Staff (temp)",
                     "19|636"
                  ],
                  [
                     "Fitness Instructor (temp)",
                     "19|637"
                  ],
                  [
                     "Fitness manager (temp)",
                     "19|638"
                  ],
                  [
                     "Group Exercise Instructor (temp)",
                     "19|639"
                  ],
                  [
                     "Kitchen Porter (temp)",
                     "19|640"
                  ],
                  [
                     "Leafleter (temp)",
                     "19|641"
                  ],
                  [
                     "Lifeguards (temp)",
                     "19|642"
                  ],
                  [
                     "Management duty (temp)",
                     "19|643"
                  ],
                  [
                     "Membership Sales Consultant (temp)",
                     "19|644"
                  ],
                  [
                     "Operations manager (temp)",
                     "19|645"
                  ],
                  [
                     "Promotional Staff (temp)",
                     "19|646"
                  ],
                  [
                     "Receptionist (temp)",
                     "19|647"
                  ],
                  [
                     "Sales Assistant (temp)",
                     "19|648"
                  ],
                  [
                     "Sales manager (temp)",
                     "19|649"
                  ],
                  [
                     "Sports development manager (temp)",
                     "19|650"
                  ],
                  [
                     "Summer jobs",
                     "19|651"
                  ],
                  [
                     "Swim Teacher (temp)",
                     "19|652"
                  ],
                  [
                     "Waiting Staff (temp)",
                     "19|653"
                  ]
               ]
            },
            {
               "Label" : "Travel & Culture",
               "Options" : [
                  [
                     "Administration & Support",
                     "19|613"
                  ],
                  [
                     "Arts Assistant",
                     "19|614"
                  ],
                  [
                     "Business Development Manager",
                     "19|513064"
                  ],
                  [
                     "Business Travel Consultant",
                     "19|615"
                  ],
                  [
                     "Cabin Crew",
                     "19|616"
                  ],
                  [
                     "Call Centre",
                     "19|617"
                  ],
                  [
                     "Camps and Activity Coordinators",
                     "19|618"
                  ],
                  [
                     "Camps and Activity Manager",
                     "19|619"
                  ],
                  [
                     "Conference Co-ordinator",
                     "19|620"
                  ],
                  [
                     "Cruise Ship",
                     "19|621"
                  ],
                  [
                     "Customer Service Advisor",
                     "19|513067"
                  ],
                  [
                     "Customer Service Representative",
                     "19|513070"
                  ],
                  [
                     "Graduate (Travel)",
                     "19|513073"
                  ],
                  [
                     "Holiday Rep",
                     "19|622"
                  ],
                  [
                     "Librarian",
                     "19|623"
                  ],
                  [
                     "Museum Assistant",
                     "19|624"
                  ],
                  [
                     "Overseas",
                     "19|513118"
                  ],
                  [
                     "Reservations Consultant",
                     "19|513076"
                  ],
                  [
                     "Sales and Customer Service Associate",
                     "19|513079"
                  ],
                  [
                     "Sales Assistant (Travel)",
                     "19|513082"
                  ],
                  [
                     "Sales Consultant",
                     "19|513085"
                  ],
                  [
                     "Sales Executive",
                     "19|513088"
                  ],
                  [
                     "Sales Manager (Travel)",
                     "19|513091"
                  ],
                  [
                     "Sales Team Leader",
                     "19|513094"
                  ],
                  [
                     "Senior Business Travel Consultant",
                     "19|513097"
                  ],
                  [
                     "Senior Management (Travel)",
                     "19|625"
                  ],
                  [
                     "Trainee Sales Assistant",
                     "19|513100"
                  ],
                  [
                     "Travel Account Management",
                     "19|626"
                  ],
                  [
                     "Travel Administrator",
                     "19|513103"
                  ],
                  [
                     "Travel Advisor",
                     "19|513106"
                  ],
                  [
                     "Travel Agent",
                     "19|627"
                  ],
                  [
                     "Travel Consultant",
                     "19|628"
                  ],
                  [
                     "Travel Executive",
                     "19|513109"
                  ],
                  [
                     "Travel Manager",
                     "19|513112"
                  ],
                  [
                     "Travel Specialist",
                     "19|513115"
                  ]
               ]
            }
         ]
      },
      "21" : {
         "Label" : "Eligible to work in the UK",
         "Type" : "MultiList",
         "Values" : [
            [
               "Yes",
               "21|694"
            ],
            [
               "No",
               "21|695"
            ]
         ]
      },
      "22" : {
         "Label" : "Full UK driving licence",
         "Type" : "MultiList",
         "Values" : [
            [
               "Yes",
               "22|694"
            ],
            [
               "No",
               "22|695"
            ]
         ]
      }
   }
}
